<?xml version="1.0" encoding="utf-8"?>
<!-- Generator: Adobe Illustrator 24.0.1, SVG Export Plug-In . SVG Version: 6.00 Build 0)  -->
<svg version="1.1" id="Layer_1" xmlns="http://www.w3.org/2000/svg" xmlns:xlink="http://www.w3.org/1999/xlink" x="0px" y="0px"
	 viewBox="0 0 26 39" style="enable-background:new 0 0 26 39;" xml:space="preserve">
<style type="text/css">
	.st0{fill-rule:evenodd;clip-rule:evenodd;fill:#ECB020;}
</style>
<path class="st0" d="M4,36.2l-0.5-0.5c-1-1.1-1.2-2.5-0.1-3.5l10.5-10.5c0,0,0,0,0,0c1.2-1.2,1.2-3.2,0-4.4L3.3,6.9
	c-1.1-1-0.9-2.3,0.1-3.5L4,2.9c1.3-1.3,3-1,4.3,0.3l14.3,14.2c0,0,0.1,0.1,0.1,0.1c1.2,1.2,1.2,3.2-0.1,4.4L8.3,35.9
	C7,37.2,5.3,37.5,4,36.2z"/>
</svg>
