<?xml version="1.0" encoding="utf-8"?>
<!-- Generator: Adobe Illustrator 24.3.0, SVG Export Plug-In . SVG Version: 6.00 Build 0)  -->
<svg version="1.1" id="Layer_1" xmlns="http://www.w3.org/2000/svg" xmlns:xlink="http://www.w3.org/1999/xlink" x="0px" y="0px"
	 viewBox="0 0 16.1 25.8" style="enable-background:new 0 0 16.1 25.8;" xml:space="preserve">
<style type="text/css">
	.st0{fill:#FFFFFF;}
</style>
<g>
	<g>
		<path class="st0" d="M1.1,5.1h4v-4h-4V5.1z M1.1,15.1h4v-4h-4V15.1z M1.1,25.1h4v-4h-4V25.1z M11.1,1.1v4h4v-4H11.1z M11.1,15.1h4
			v-4h-4V15.1z M11.1,25.1h4v-4h-4V25.1z"/>
	</g>
</g>
</svg>
