<?xml version="1.0" encoding="utf-8"?>
<!-- Generator: Adobe Illustrator 24.0.1, SVG Export Plug-In . SVG Version: 6.00 Build 0)  -->
<svg version="1.1" xmlns="http://www.w3.org/2000/svg" xmlns:xlink="http://www.w3.org/1999/xlink" x="0px" y="0px"
	 viewBox="0 0 25 21" style="enable-background:new 0 0 25 21;" xml:space="preserve">
<style type="text/css">
	.st0{display:none;}
	.st1{display:inline;}
	.st2{fill:#2C3545;}
	.st3{display:inline;fill:#2C3545;}
	.st4{fill:none;stroke:#2C3545;stroke-width:0.5;stroke-miterlimit:10;}
</style>
<g id="Layer_1" class="st0">
	<g class="st1">
		<g>
			<path class="st2" d="M13.5,7.1H4.1v3.1h0.4c0.1-0.8,0.4-1.5,1-2c0.3-0.3,0.9-0.5,1.7-0.5h0.9v9.2c0,0.6-0.1,1-0.1,1.1
				c-0.1,0.2-0.2,0.3-0.4,0.4c-0.2,0.1-0.5,0.2-0.8,0.2H6.4v0.3h6.2v-0.3h-0.4c-0.3,0-0.6-0.1-0.8-0.2c-0.2-0.1-0.3-0.3-0.4-0.4
				c-0.1-0.1-0.1-0.5-0.1-1.1V7.7h0.9c0.5,0,0.9,0.1,1.2,0.2c0.4,0.2,0.7,0.5,0.9,0.8c0.2,0.3,0.4,1,0.6,1.5h0.4V8.4
				c-0.1-0.1-0.2-0.1-0.3-0.2C14.1,7.9,13.7,7.5,13.5,7.1z M20.8,3.2c-0.8-0.6-1.9-1-3.1-1c-1.2,0-2.2,0.4-3.1,1
				c-0.8,0.7-1.3,1.5-1.3,2.5c0,0.9,0.5,1.8,1.3,2.5c0.2,0.2,0.4,0.3,0.6,0.4c0,0,0.1,0.1,0.1,0.1L15.3,10c0,0.1,0.1,0.2,0.2,0.1
				l1.2-1c0,0,0.1,0,0.1,0c0.3,0.1,0.6,0.1,0.9,0.1c1.2,0,2.2-0.4,3.1-1c0.8-0.7,1.3-1.5,1.3-2.5C22.1,4.7,21.6,3.9,20.8,3.2z
				 M15.7,6.3c-0.3,0-0.6-0.3-0.6-0.6c0-0.3,0.3-0.6,0.6-0.6c0.3,0,0.6,0.3,0.6,0.6C16.3,6,16.1,6.3,15.7,6.3z M17.8,6.3
				c-0.3,0-0.6-0.3-0.6-0.6c0-0.3,0.3-0.6,0.6-0.6c0.3,0,0.6,0.3,0.6,0.6C18.4,6,18.1,6.3,17.8,6.3z M19.8,6.3
				c-0.3,0-0.6-0.3-0.6-0.6c0-0.3,0.3-0.6,0.6-0.6c0.3,0,0.6,0.3,0.6,0.6C20.5,6,20.2,6.3,19.8,6.3z"/>
		</g>
	</g>
</g>
<g id="Layer_2">
	<path class="st2" d="M18,8.2H6.7c-1,0-1.9,0.9-1.9,1.9c0,1.1,0.8,1.9,1.9,1.9H18c1,0,1.9-0.9,1.9-1.9C19.9,9.1,19.1,8.2,18,8.2z"/>
</g>
<g id="Layer_3" class="st0">
	<path class="st3" d="M18,12h-3.8v3.8c0,1-0.8,1.9-1.9,1.9c-1,0-1.9-0.8-1.9-1.9V12H6.7c-1,0-1.9-0.8-1.9-1.9s0.8-1.9,1.9-1.9h3.8
		V4.5c0-1,0.8-1.9,1.9-1.9c1,0,1.9,0.8,1.9,1.9v3.8H18c1,0,1.9,0.8,1.9,1.9S19.1,12,18,12z"/>
</g>
<g id="Layer_4" class="st0">
	<g class="st1">
		<g>
			<path class="st4" d="M2.4,15.5h3.1v-8H2.4V15.5z M6.5,15.5l6.1,4v-16l-6.1,4V15.5z M18.8,2.5l-1.4,1.4c1.8,1.8,3,4.3,3,7.1
				c0,2.8-1.1,5.3-3,7.1l1.4,1.4c2.2-2.2,3.6-5.2,3.6-8.5S21,4.6,18.8,2.5z M15.9,5.3l-1.4,1.4c1.1,1.1,1.8,2.6,1.8,4.2
				s-0.7,3.2-1.8,4.2l1.4,1.4c1.5-1.4,2.4-3.4,2.4-5.7C18.3,8.7,17.4,6.7,15.9,5.3z"/>
		</g>
	</g>
</g>
<g id="Layer_5" class="st0">
	<g class="st1">
		<path class="st4" d="M15.5,17.1h-13v-12h13V17.1z"/>
		<path class="st4" d="M22.5,17.1l-6-3v-6l6-3V17.1z"/>
	</g>
</g>
<g id="Layer_6" class="st0">
	<g class="st1">
		<path class="st2" d="M7.3,3.7H4.9c-0.2,0-0.4-0.2-0.4-0.4c0-0.2,0.2-0.4,0.4-0.4h2.4c0.2,0,0.4,0.2,0.4,0.4
			C7.7,3.5,7.5,3.7,7.3,3.7z"/>
		<path class="st2" d="M20.5,18.1h-16c-1.1,0-2-0.9-2-2V6.5c0-1.1,0.9-2,2-2h3.8l1.8-1.8c0.4-0.4,0.9-0.6,1.4-0.6h1.9
			c0.5,0,1,0.2,1.4,0.6l1.8,1.8h3.8c1.1,0,2,0.9,2,2v9.6C22.5,17.2,21.6,18.1,20.5,18.1z M4.5,5.3c-0.7,0-1.2,0.5-1.2,1.2v9.6
			c0,0.7,0.5,1.2,1.2,1.2h16c0.7,0,1.2-0.5,1.2-1.2V6.5c0-0.7-0.5-1.2-1.2-1.2h-4c-0.1,0-0.2,0-0.3-0.1l-1.9-1.9
			C14,3,13.7,2.9,13.4,2.9h-1.9c-0.3,0-0.6,0.1-0.8,0.4L8.7,5.2C8.7,5.3,8.6,5.3,8.5,5.3H4.5z"/>
		<path class="st2" d="M12.5,15.7c-2.6,0-4.8-2.2-4.8-4.8c0-2.6,2.2-4.8,4.8-4.8c2.6,0,4.8,2.2,4.8,4.8
			C17.3,13.5,15.1,15.7,12.5,15.7z M12.5,6.9c-2.2,0-4,1.8-4,4c0,2.2,1.8,4,4,4c2.2,0,4-1.8,4-4C16.5,8.7,14.7,6.9,12.5,6.9z"/>
	</g>
</g>
</svg>
