<?xml version="1.0" encoding="utf-8"?>
<!-- Generator: Adobe Illustrator 24.0.1, SVG Export Plug-In . SVG Version: 6.00 Build 0)  -->
<svg version="1.1" xmlns="http://www.w3.org/2000/svg" xmlns:xlink="http://www.w3.org/1999/xlink" x="0px" y="0px"
	 viewBox="0 0 25 21" style="enable-background:new 0 0 25 21;" xml:space="preserve">
<style type="text/css">
	.st0{display:none;}
	.st1{display:inline;}
	.st2{fill:#ECB020;}
	.st3{display:inline;fill:#ECB020;}
</style>
<g id="Layer_1" class="st0">
	<g class="st1">
		<g>
			<path class="st2" d="M13.5,7.1H4.1v3.1h0.4c0.1-0.8,0.4-1.5,1-2c0.3-0.3,0.9-0.5,1.7-0.5h0.9v9.2c0,0.6-0.1,1-0.1,1.1
				c-0.1,0.2-0.2,0.3-0.4,0.4c-0.2,0.1-0.5,0.2-0.8,0.2H6.4v0.3h6.2v-0.3h-0.4c-0.3,0-0.6-0.1-0.8-0.2c-0.2-0.1-0.3-0.3-0.4-0.4
				c-0.1-0.1-0.1-0.5-0.1-1.1V7.7h0.9c0.5,0,0.9,0.1,1.2,0.2c0.4,0.2,0.7,0.5,0.9,0.8c0.2,0.3,0.4,1,0.6,1.5h0.4V8.4
				c-0.1-0.1-0.2-0.1-0.3-0.2C14.1,7.9,13.7,7.5,13.5,7.1z M20.8,3.2c-0.8-0.6-1.9-1-3.1-1c-1.2,0-2.2,0.4-3.1,1
				c-0.8,0.7-1.3,1.5-1.3,2.5c0,0.9,0.5,1.8,1.3,2.5c0.2,0.2,0.4,0.3,0.6,0.4c0,0,0.1,0.1,0.1,0.1L15.3,10c0,0.1,0.1,0.2,0.2,0.1
				l1.2-1c0,0,0.1,0,0.1,0c0.3,0.1,0.6,0.1,0.9,0.1c1.2,0,2.2-0.4,3.1-1c0.8-0.7,1.3-1.5,1.3-2.5C22.1,4.7,21.6,3.9,20.8,3.2z
				 M15.7,6.3c-0.3,0-0.6-0.3-0.6-0.6c0-0.3,0.3-0.6,0.6-0.6c0.3,0,0.6,0.3,0.6,0.6C16.3,6,16.1,6.3,15.7,6.3z M17.8,6.3
				c-0.3,0-0.6-0.3-0.6-0.6c0-0.3,0.3-0.6,0.6-0.6c0.3,0,0.6,0.3,0.6,0.6C18.4,6,18.1,6.3,17.8,6.3z M19.8,6.3
				c-0.3,0-0.6-0.3-0.6-0.6c0-0.3,0.3-0.6,0.6-0.6c0.3,0,0.6,0.3,0.6,0.6C20.5,6,20.2,6.3,19.8,6.3z"/>
		</g>
	</g>
</g>
<g id="Layer_2" class="st0">
	<path class="st3" d="M18,8.2H6.7c-1,0-1.9,0.9-1.9,1.9c0,1.1,0.8,1.9,1.9,1.9H18c1,0,1.9-0.9,1.9-1.9C19.9,9.1,19.1,8.2,18,8.2z"/>
</g>
<g id="Layer_3">
	<path class="st2" d="M18,12h-3.8v3.8c0,1-0.8,1.9-1.9,1.9c-1,0-1.9-0.8-1.9-1.9V12H6.7c-1,0-1.9-0.8-1.9-1.9s0.8-1.9,1.9-1.9h3.8
		V4.5c0-1,0.8-1.9,1.9-1.9c1,0,1.9,0.8,1.9,1.9v3.8H18c1,0,1.9,0.8,1.9,1.9S19.1,12,18,12z"/>
</g>
</svg>
