<?xml version="1.0" encoding="utf-8"?>
<!-- Generator: Adobe Illustrator 24.1.2, SVG Export Plug-In . SVG Version: 6.00 Build 0)  -->
<svg version="1.1" id="Layer_1" xmlns="http://www.w3.org/2000/svg" xmlns:xlink="http://www.w3.org/1999/xlink" x="0px" y="0px"
	 viewBox="0 0 28 28" style="enable-background:new 0 0 28 28;" xml:space="preserve">
<style type="text/css">
	.st0{fill:#2C3545;}
</style>
<g>
	<g>
		<path class="st0" d="M18.7,3.4c0.6-0.3,2.3,1,2.8,1.4c4.7,3.6,5.8,10.9,2.5,15.9c-1,1.6-2.9,3.5-4.6,4.1c-0.7,0.3-1.3-0.2-1.1-1
			c0.2-0.9,2.5-0.8,4.6-4.2c0.3-0.4,0.5-0.9,0.7-1.4c1.5-3.8,0.8-7.5-1.4-10.5c-0.6-0.8-1.5-1.6-2.3-2.1c-0.3-0.2-1.2-0.6-1.4-0.8
			C17.9,4.2,18.2,3.6,18.7,3.4z M17.2,6.8c1.4-0.6,7.8,5.1,3.7,11.9c-0.5,0.8-2.1,2.5-3.1,2.8c-1.1,0.3-1.4-1.1-0.6-1.6
			c0.8-0.5,1.1-0.6,1.7-1.2c2.2-2.1,2.5-6.5,0.2-8.9c-0.6-0.6-0.8-0.9-1.6-1.3C16.2,7.9,16.6,7,17.2,6.8z M14.6,6.2
			c0,2.3,0.1,4.8,0,7.2l0,0.6l0,0.5l0,1.3c0,2.4,0,4.9,0,7.3c0,1.7-0.9,1.8-1.8,0.9l-3.7-3.7c-1.1-1.1-1.2-1.6-2.1-1.6
			c-4.9,0-4.5,0.6-4.5-2.7c0-1.4-0.1-2.7-0.1-4.1c0-0.8,0.2-1.4,1-1.5c1.1-0.1,2.5,0,3.7,0c0.8,0,0.8-0.3,1.2-0.7l4.5-4.6
			C13.6,4.5,14.6,4.4,14.6,6.2z M15.2,11.3c-0.1-0.5,0.1-0.9,0.5-1.1c0.6-0.3,1.6,0.8,1.8,1.1c2.1,3,0.1,6.2-1.4,6.6
			c-0.9,0.3-1.4-1-0.5-1.6c0.6-0.4,1.2-1.1,1.2-2c0.1-1.1-0.4-1.9-0.9-2.3C15.7,11.8,15.3,11.8,15.2,11.3z"/>
	</g>
</g>
</svg>
