<?xml version="1.0" encoding="utf-8"?>
<!-- Generator: Adobe Illustrator 24.1.3, SVG Export Plug-In . SVG Version: 6.00 Build 0)  -->
<svg version="1.1" id="Layer_1" xmlns="http://www.w3.org/2000/svg" xmlns:xlink="http://www.w3.org/1999/xlink" x="0px" y="0px"
	 viewBox="0 0 184.8 163" style="enable-background:new 0 0 184.8 163;" xml:space="preserve">
<style type="text/css">
	.st0{display:none;}
	.st1{display:inline;fill:#23ABE2;}
	.st2{display:inline;}
	.st3{fill:#FFFFFF;}
</style>
<g id="XMLID_39_" class="st0">
	<circle id="XMLID_36_" class="st1" cx="131" cy="70.5" r="44.1"/>
	<g id="XMLID_38_" class="st2">
		<path id="XMLID_40_" class="st3" d="M116.3,53.1h1.6c2.5,0,4.6-0.3,6.2-0.9c1.6-0.6,3-1.3,3.9-2.2c1-0.9,1.6-1.9,2.1-3
			c0.4-1.1,0.7-2.1,0.7-3.1h8.6v53H129V60.4h-12.6L116.3,53.1L116.3,53.1z"/>
	</g>
</g>
<path class="st3" d="M150.6,120.6L136.5,105c-1.6-1.7-2.4-3.8-2.4-6.1V75.6c0-20.5-14.3-38.2-34.2-43.3V26c0-6.2-5-11.2-11.2-11.2
	h-0.1h-0.1c-6.2,0-11.2,5-11.2,11.2v6.3c-20,5.1-34.2,22.8-34.2,43.3v23.3c0,2.3-0.8,4.4-2.4,6.1l-14.1,15.6
	c-1.5,1.6-2.2,3.6-2.2,5.7c0,1.2,0.2,2.3,0.7,3.4c1.4,3.1,4.4,5.1,7.9,5.1h0.1h33c0.8,4.6,3.1,8.8,6.3,12.1c2.6,2.6,5.8,4.5,9.4,5.7
	c0.3,0.1,0.5,0.2,0.8,0.3h0.1c1.9,0.5,3.9,0.8,6,0.8l0,0l0,0c2.1,0,4.1-0.3,6-0.8h0.1c0.3-0.1,0.5-0.2,0.8-0.3
	c3.6-1.1,6.8-3.1,9.4-5.7c3.2-3.2,5.5-7.4,6.3-12.1h33l0,0h0.1c3.5,0,6.5-2,7.9-5.1c0.5-1.1,0.7-2.2,0.7-3.4
	C152.8,124.2,152,122.2,150.6,120.6z M65.7,128.2H32.9c-1,0-1.4-0.7-1.5-1s-0.3-1,0.3-1.6l7.3-8.1l0,0l6.8-7.5
	c2.7-3,4.2-6.8,4.2-10.8V75.8c0-18.2,13.3-33.9,31.6-37.2l2.9-0.5v-12c0-2.3,1.8-4.1,4.1-4.2c2.2,0.1,4.1,1.9,4.1,4.2v12l2.9,0.5
	c18.3,3.3,31.6,19,31.6,37.2v23.4c0,4,1.5,7.8,4.2,10.8l6.8,7.5l0,0l7.3,8.1c0.6,0.6,0.4,1.3,0.3,1.6c-0.1,0.3-0.5,1-1.5,1h-32.8
	L65.7,128.2L65.7,128.2z M73.2,135.2h30.7c-1.6,6.7-7.9,11.8-15.3,11.8C81,147,74.8,141.9,73.2,135.2z"/>
</svg>
