<?xml version="1.0" encoding="utf-8"?>
<!-- Generator: Adobe Illustrator 25.0.1, SVG Export Plug-In . SVG Version: 6.00 Build 0)  -->
<svg version="1.1" id="Layer_1" xmlns="http://www.w3.org/2000/svg" xmlns:xlink="http://www.w3.org/1999/xlink" x="0px" y="0px"
	 viewBox="0 0 234.4 73.7" style="enable-background:new 0 0 234.4 73.7;" xml:space="preserve">
<style type="text/css">
	.st0{fill:#231F20;}
	.st1{fill:#010101;}
</style>
<g>
	<path class="st0" d="M14.2,35.3h13.9v2.9H17.6v8.5h10v2.9h-10v9.6h11v2.9H14.2V35.3z"/>
	<path class="st0" d="M31.1,48.2c0-4.6,2-6.6,6.8-6.6c6.1,0,6.1,3.7,6.1,5.8v11.3c0,0.8,0,1.6,1,1.6c0.3,0,0.5,0,0.8-0.2v2.3
		c-0.6,0.1-1.2,0.2-1.8,0.2c-1.2,0-2.7,0-2.9-2.6H41c-1,1.8-2.8,2.9-4.9,2.9c-3.8,0-5.5-2.3-5.5-5.9c0-2.8,1.2-4.8,3.8-5.6l4.3-1.3
		C41,49.3,41,48.7,41,47c0-1.9-1.1-3-3.2-3c-3.5,0-3.5,3.2-3.5,4v0.2L31.1,48.2z M40.9,51.3c-1.2,1.3-4,1.5-5.4,2.4
		c-1,0.6-1.5,1.4-1.5,3.2c0,2,0.7,3.5,2.9,3.5c2.1,0,4.1-1.8,4.1-3.8V51.3z"/>
	<path class="st0" d="M57,48c0-2.6-0.7-4-3-4c-1,0-3.3,0.3-3.3,3.1c0,2.4,2.5,2.8,5,3.7c2.5,0.8,4.9,1.7,4.9,5.7
		c0,4.3-2.8,6.3-6.5,6.3c-6.9,0-6.9-5.1-6.9-7.2h3.1c0,2.4,0.7,4.7,3.8,4.7c1.7,0.1,3.2-1.2,3.4-2.9c0-0.1,0-0.3,0-0.4
		c0-2.7-2.5-3.3-4.9-4.1c-2.4-0.8-5-1.5-5-5.7c0-3.8,2.9-5.6,6.4-5.6c5.9,0,6.1,4.1,6.1,6.4L57,48z"/>
	<path class="st0" d="M62,42h3.5l4,16.2h0.1L73,42h3.5l-5.8,21.6c-0.8,2.8-1.6,5.3-5.4,5.3c-0.8,0-1.5,0-2.3-0.1v-2.5
		c0.6,0.1,1.2,0.1,1.8,0.1c1.5,0,2.1-0.9,2.5-2l0.6-1.8L62,42z"/>
	<path class="st0" d="M84.2,53.9L84,54.6c-0.7,3.3,0.4,4.9,3.4,4.9c2.4,0,4.4-1.6,4.9-3.9c0.6-2.8-0.6-4.1-2.8-4.8l-2.7-1
		c-3.6-1.5-4.9-3.5-4-7.4c1-4.9,4.9-7.6,10-7.6c6.9,0,6.7,4.3,6.1,7.1l-0.2,0.6h-4.3l0.2-0.6c0.5-2.4-0.3-3.9-3-3.9
		c-1.8,0-3.8,1-4.4,3.9c-0.5,2.3,0.4,3.5,3.1,4.6l2.7,1.1c3.5,1.4,4.7,3.4,4,7.1c-1.3,5.7-5.2,8.1-10.6,8.1c-6.7,0-7.2-4.4-6.4-8.2
		l0.2-0.6L84.2,53.9z"/>
	<path class="st0" d="M104.2,35.3h4.3l-5.7,26.9h-4.3L104.2,35.3z"/>
	<path class="st0" d="M112.8,35.3h6.7l0.5,19.9h0.1l8.9-19.9h6.6l-5.7,26.9h-4.1l4.7-22.4h-0.1l-10.2,22.4h-3.6l-0.7-22.4h-0.1
		l-4.7,22.4h-4.1L112.8,35.3z"/>
	<path class="st1" d="M143.4,33.9c3.2,0,5.9,2.6,5.9,5.8s-2.6,5.9-5.8,5.9c-3.2,0-5.9-2.6-5.9-5.8c0,0,0,0,0,0
		C137.5,36.5,140.1,33.9,143.4,33.9L143.4,33.9z M147.8,39.7c0-2.4-2-4.4-4.4-4.4s-4.4,2-4.4,4.4s2,4.4,4.4,4.4
		S147.8,42.1,147.8,39.7z M143,40.2h-1v2.8h-1.2v-6.7h2.6c1.7,0,2.5,0.6,2.5,1.9c0,1.2-0.8,1.7-1.7,1.9l1.8,2.9h-1.4L143,40.2z
		 M143.2,39.3c0.8,0,1.6-0.1,1.6-1c0-0.8-0.8-0.9-1.5-0.9H142v1.9L143.2,39.3z"/>
</g>
<g>
	<path d="M14.2,8.6c0.9-0.2,2.1-0.3,3.6-0.3c1.8,0,3.2,0.4,4.1,1.2c0.8,0.7,1.3,1.7,1.3,3c0,1.3-0.4,2.3-1.1,3.1
		c-1,1.1-2.6,1.6-4.4,1.6c-0.6,0-1.1,0-1.5-0.1v5.8h-1.9V8.6z M16.1,15.5c0.4,0.1,0.9,0.2,1.5,0.2c2.3,0,3.6-1.1,3.6-3.1
		c0-1.9-1.4-2.8-3.4-2.8c-0.8,0-1.4,0.1-1.8,0.2V15.5z"/>
	<path d="M34.5,17.6c0,3.8-2.7,5.5-5.2,5.5c-2.8,0-5-2.1-5-5.3c0-3.5,2.3-5.5,5.2-5.5C32.5,12.2,34.5,14.4,34.5,17.6z M26.2,17.7
		c0,2.3,1.3,4,3.2,4c1.8,0,3.2-1.7,3.2-4c0-1.8-0.9-4-3.1-4C27.2,13.6,26.2,15.7,26.2,17.7z"/>
	<path d="M37.5,12.5l1.4,5.3c0.3,1.2,0.6,2.2,0.8,3.3h0.1c0.2-1.1,0.6-2.2,0.9-3.3l1.7-5.3h1.6l1.6,5.2c0.4,1.2,0.7,2.3,0.9,3.4h0.1
		c0.2-1.1,0.5-2.1,0.8-3.4l1.5-5.2h1.9l-3.4,10.4h-1.7l-1.6-5c-0.4-1.2-0.7-2.2-0.9-3.4h0c-0.3,1.2-0.6,2.3-0.9,3.4l-1.7,4.9h-1.7
		l-3.1-10.4H37.5z"/>
	<path d="M53.4,18c0,2.6,1.7,3.6,3.6,3.6c1.4,0,2.2-0.2,2.9-0.5l0.3,1.4c-0.7,0.3-1.8,0.6-3.5,0.6c-3.2,0-5.1-2.1-5.1-5.2
		c0-3.1,1.8-5.6,4.9-5.6c3.4,0,4.3,3,4.3,4.9c0,0.4,0,0.7-0.1,0.9H53.4z M58.9,16.7c0-1.2-0.5-3.1-2.6-3.1c-1.9,0-2.7,1.8-2.9,3.1
		H58.9z"/>
	<path d="M63.1,15.7c0-1.2,0-2.3-0.1-3.2h1.7l0.1,2h0.1c0.5-1.4,1.6-2.3,2.9-2.3c0.2,0,0.4,0,0.5,0.1v1.8C68,14,67.8,14,67.6,14
		c-1.3,0-2.3,1-2.5,2.4c0,0.3-0.1,0.6-0.1,0.9v5.5h-1.9V15.7z"/>
	<path d="M71,18c0,2.6,1.7,3.6,3.6,3.6c1.4,0,2.2-0.2,2.9-0.5l0.3,1.4c-0.7,0.3-1.8,0.6-3.5,0.6c-3.2,0-5.1-2.1-5.1-5.2
		c0-3.1,1.8-5.6,4.9-5.6c3.4,0,4.3,3,4.3,4.9c0,0.4,0,0.7-0.1,0.9H71z M76.5,16.7c0-1.2-0.5-3.1-2.6-3.1c-1.9,0-2.7,1.8-2.9,3.1
		H76.5z"/>
	<path d="M89.6,7.6v12.6c0,0.9,0,2,0.1,2.7H88l-0.1-1.8h0c-0.6,1.2-1.8,2-3.5,2c-2.5,0-4.4-2.1-4.4-5.3c0-3.5,2.1-5.6,4.7-5.6
		c1.6,0,2.7,0.8,3.1,1.6h0V7.6H89.6z M87.8,16.7c0-0.2,0-0.6-0.1-0.8c-0.3-1.2-1.3-2.2-2.7-2.2c-2,0-3.1,1.7-3.1,4
		c0,2.1,1,3.8,3.1,3.8c1.3,0,2.4-0.8,2.8-2.3c0.1-0.3,0.1-0.5,0.1-0.8V16.7z"/>
	<path d="M97.3,22.9c0-0.7,0.1-1.8,0.1-2.7V7.6h1.9v6.5h0c0.7-1.2,1.9-1.9,3.5-1.9c2.6,0,4.4,2.1,4.4,5.3c0,3.7-2.3,5.6-4.7,5.6
		c-1.5,0-2.7-0.6-3.5-2H99l-0.1,1.7H97.3z M99.2,18.7c0,0.2,0,0.5,0.1,0.7c0.4,1.3,1.5,2.2,2.8,2.2c2,0,3.2-1.6,3.2-4
		c0-2.1-1.1-3.9-3.1-3.9c-1.3,0-2.5,0.9-2.9,2.3c0,0.2-0.1,0.5-0.1,0.8V18.7z"/>
	<path d="M110.1,12.5l2.3,6.1c0.2,0.7,0.5,1.5,0.7,2.1h0c0.2-0.6,0.4-1.4,0.7-2.2l2.1-6.1h2l-2.8,7.4c-1.4,3.6-2.3,5.4-3.6,6.5
		c-0.9,0.8-1.8,1.1-2.3,1.2l-0.5-1.6c0.5-0.2,1.1-0.5,1.7-0.9c0.5-0.4,1.2-1.1,1.6-2.1c0.1-0.2,0.2-0.3,0.2-0.5s0-0.3-0.1-0.5
		l-3.8-9.6H110.1z"/>
</g>
</svg>
