<?xml version="1.0" encoding="utf-8"?>
<!-- Generator: Adobe Illustrator 23.0.3, SVG Export Plug-In . SVG Version: 6.00 Build 0)  -->
<svg version="1.1" xmlns="http://www.w3.org/2000/svg" xmlns:xlink="http://www.w3.org/1999/xlink" x="0px" y="0px"
	 viewBox="0 0 70 70" style="enable-background:new 0 0 70 70;" xml:space="preserve">
<style type="text/css">
	.st0{display:none;}
	.st1{display:inline;}
	.st2{fill-rule:evenodd;clip-rule:evenodd;fill:#1E2530;}
	.st3{display:inline;fill:#1E2530;}
	.st4{fill:#1E2530;}
	.st5{display:inline;fill-rule:evenodd;clip-rule:evenodd;fill:none;stroke:#1E2530;stroke-width:2;stroke-miterlimit:10;}
</style>
<g id="Layer_1" class="st0">
	<g class="st1">
		<g>
			<path class="st2" d="M58.92,40.06l-13.57-5.81c-1.92-0.93-3.35-2.39-3.86-3.67c1.83-1.99,3.29-4.56,3.87-6.86l0.84-0.5
				c1.13-3.11,1.48-5.87,1.34-8.42l-0.62-0.48c0.16-2.31,0.1-6.45-0.99-8.48C44.08,2.41,39.42,0.03,35.71,0h-1.42
				c-3.71,0.03-8.37,2.41-10.21,5.83c-1.09,2.03-1.16,6.18-0.99,8.48l-0.62,0.48c-0.14,2.54,0.22,5.31,1.34,8.42l0.84,0.5
				c0.59,2.3,2.05,4.87,3.87,6.86c-0.52,1.28-1.94,2.75-3.86,3.67l-13.57,5.81c-5.38,2-5.77,16.63-5.77,21.61l0.02,1.37
				c0,0,4.5,6.96,29.69,6.96c22.1,0,29.62-6.96,29.62-6.96l0.02-1.37C64.68,56.69,64.29,42.05,58.92,40.06z"/>
		</g>
	</g>
</g>
<g id="Layer_2" class="st0">
	<path class="st3" d="M10,39c2-1,16-6,17-8c-2-3-3-5-3-5l0.04-0.04l-3.36-1.44c-0.99-0.48-1.73-1.24-2-1.9
		c0.95-1.03,1.7-2.36,2-3.54l0.44-0.26c0.58-1.61,0.77-3.04,0.69-4.35l-0.32-0.25c0.08-1.19,0.05-3.34-0.51-4.38
		c-0.95-1.77-3.36-3-5.28-3.01h-0.73c-1.92,0.02-4.33,1.24-5.28,3.01c-0.56,1.05-0.6,3.19-0.51,4.38l-0.32,0.25
		c-0.07,1.31,0.11,2.74,0.69,4.35l0.44,0.26c0.3,1.19,1.06,2.52,2,3.54c-0.27,0.66-1,1.42-2,1.9l-7.01,3C0.2,28.56,0,36.12,0,38.69
		l0.01,0.71c0,0,1.2,1.85,6.69,2.9C6.7,42.3,8,40,10,39z"/>
	<path class="st3" d="M60,39.18c-2-1-16-6-17-8c2-3,3-5,3-5l-0.04-0.04l3.36-1.44c0.99-0.48,1.73-1.24,2-1.9
		c-0.95-1.03-1.7-2.36-2-3.54L48.87,19c-0.58-1.61-0.77-3.04-0.69-4.35l0.32-0.25c-0.08-1.19-0.05-3.34,0.51-4.38
		c0.95-1.77,3.36-3,5.28-3.01h0.73c1.92,0.02,4.33,1.24,5.28,3.01c0.56,1.05,0.6,3.19,0.51,4.38l0.32,0.25
		c0.07,1.31-0.11,2.74-0.69,4.35l-0.44,0.26c-0.3,1.19-1.06,2.52-2,3.54c0.27,0.66,1,1.42,2,1.9l7.01,3C69.8,28.73,70,36.3,70,38.87
		l-0.01,0.71c0,0-1.2,1.85-6.69,2.9C63.3,42.48,62,40.18,60,39.18z"/>
</g>
<g id="Layer_3" class="st0">
	<g class="st1">
		<g>
			<path class="st2" d="M51.69,26.27l-9.18-3.81c-1.3-0.61-2.26-1.57-2.61-2.41c1.24-1.3,2.22-2.99,2.62-4.5l0.57-0.33
				c0.76-2.04,1-3.85,0.91-5.52l-0.42-0.32c0.11-1.51,0.07-4.23-0.67-5.57c-1.24-2.25-4.4-3.8-6.91-3.82h-0.96
				c-2.51,0.02-5.66,1.58-6.91,3.82c-0.74,1.33-0.78,4.05-0.67,5.57l-0.42,0.32c-0.09,1.67,0.15,3.48,0.91,5.52l0.57,0.33
				c0.4,1.51,1.38,3.19,2.62,4.5c-0.35,0.84-1.31,1.8-2.61,2.41l-9.18,3.81c-3.64,1.31-3.9,10.91-3.9,14.17l0.01,0.9
				c0,0,3.05,4.57,20.08,4.57c14.95,0,20.04-4.57,20.04-4.57l0.02-0.9C55.59,37.18,55.33,27.58,51.69,26.27z"/>
		</g>
	</g>
</g>
<g id="Layer_4" class="st0">
	<g class="st1">
		<g>
			<path class="st2" d="M57.65,33.46v6.46c1.02,1.19,1.58,2.48,1.58,3.82c0,5.95-10.85,10.77-24.23,10.77s-24.23-4.82-24.23-10.77
				c0-1.35,0.57-2.65,1.6-3.84v-6.45C4.81,37.26,0,42.92,0,49.26C0,60.71,15.67,70,35,70s35-9.29,35-20.74
				C70,42.93,65.2,37.27,57.65,33.46z"/>
		</g>
	</g>
</g>
<g id="Layer_5" class="st0">
	<g class="st1">
		<g>
			<path class="st4" d="M34.73,17.24c-1.62,0-2.93,1.31-2.93,2.92s1.31,2.92,2.93,2.92c1.62,0,2.93-1.31,2.93-2.92
				S36.35,17.24,34.73,17.24z M44.42,17.24c-1.62,0-2.93,1.31-2.93,2.92s1.31,2.92,2.93,2.92s2.93-1.31,2.93-2.92
				S46.04,17.24,44.42,17.24z M69.12,4.21C67.78,1.63,65.07,0,62.16,0H26.67c-1.25,0-2.49,0.3-3.61,0.87
				c-0.72,0.37-1.38,0.85-1.94,1.41c-1.47,1.46-2.3,3.45-2.3,5.51v25.73c0,1.25,0.3,2.48,0.88,3.58c0.37,0.72,0.86,1.37,1.42,1.93
				c1.47,1.46,3.47,2.28,5.55,2.28l22.72,0.01l13.63,13.55V41.28c1.5-0.16,2.93-0.76,4.09-1.71c1.8-1.46,2.89-3.71,2.89-6.04V7.8
				C70,6.55,69.7,5.32,69.12,4.21z M65.51,33.53c0,0.65-0.2,1.26-0.53,1.78c-0.61,0.94-1.69,1.55-2.82,1.55l-3.63-0.01v7.23
				l-7.27-7.22l-24.59,0.01c-1.82,0-3.35-1.52-3.35-3.33V7.8c0-1.81,1.53-3.33,3.35-3.33h35.48c1.14,0,2.21,0.61,2.82,1.55
				c0.34,0.53,0.53,1.15,0.53,1.78V33.53z M54.1,17.24c-1.62,0-2.93,1.31-2.93,2.92s1.31,2.92,2.93,2.92c1.62,0,2.93-1.31,2.93-2.92
				S55.72,17.24,54.1,17.24z M47.59,45.64l-21.76-0.01c-1.53,0-3.06-0.35-4.44-1.01c-1.96-0.95-3.55-2.5-4.55-4.42
				c-0.74-1.41-1.13-3.03-1.13-4.62V16.14H7.84c-2.91,0-5.62,1.63-6.97,4.21C0.3,21.46,0,22.69,0,23.94c0,0,0,14.6,0,19.49
				c0,1.32,0,5.22,0,5.22c0,2.33,1.09,4.58,2.89,6.04c1.16,0.94,2.59,1.54,4.09,1.71V70l13.63-13.55l22.72-0.01
				c3.15,0,6.03-1.92,7.23-4.78c0,0-0.67-3.74-1.38-4.44C48.41,46.44,47.59,45.64,47.59,45.64z"/>
		</g>
	</g>
</g>
<g id="Layer_6" class="st0">
	<g class="st1">
		<g>
			<path class="st4" d="M15.43,62.47h1.13V21.47h11.29v40.99h1.13V21.47h11.67v40.61h1.13V21.47h11.67v40.99h1.13V21.47h9.78v-2.26
				h-9.78v-7.16h-1.13v7.16H41.77v-7.53h-1.13v7.53H28.98v-7.16h-1.13v7.16H16.56v-7.16h-1.13v7.16H5.65v2.26h9.78V62.47z
				 M13.55,14.69h-7.9v2.64h7.9V14.69z M64.35,14.69h-7.9v2.64h7.9V14.69z M68.49,7.16H45.89L40.9,2.22
				C39.45,0.78,37.27-0.02,34.92,0c-2.3,0.03-4.42,0.84-5.82,2.22l-4.98,4.93H1.51C0.67,7.16,0,7.83,0,8.67v59.83
				C0,69.33,0.67,70,1.51,70h66.99c0.83,0,1.51-0.67,1.51-1.51V8.67C70,7.83,69.33,7.16,68.49,7.16z M30.7,3.81
				c0.97-0.96,2.55-1.54,4.24-1.57c1.73-0.03,3.33,0.55,4.36,1.57l3.38,3.35H27.32L30.7,3.81z M66.99,66.99H3.01V10.17h63.98V66.99z
				 M26.34,14.69h-7.9v2.64h7.9V14.69z M38.76,14.69h-7.9v2.64h7.9V14.69z M51.56,14.69h-7.9v2.64h7.9V14.69z M43.66,30.89h7.9
				v-7.53h-7.9V30.89z M18.06,39.93h7.9V32.4h-7.9V39.93z M13.55,41.44h-7.9v7.53h7.9V41.44z M13.55,23.36h-7.9v7.53h7.9V23.36z
				 M18.06,30.89h7.9v-7.53h-7.9V30.89z M56.45,30.89h7.9v-7.53h-7.9V30.89z M13.55,32.4h-7.9v7.53h7.9V32.4z M56.45,39.93h7.9V32.4
				h-7.9V39.93z M30.86,30.89h7.9v-7.53h-7.9V30.89z"/>
		</g>
	</g>
</g>
<g id="Layer_7" class="st0">
	<g class="st1">
		<g>
			<path class="st4" d="M8.88,6.6h2.19V4.42H8.88V6.6z M13.22,6.6h2.19V4.42h-2.19V6.6z M17.6,6.6h2.19V4.42H17.6V6.6z M8.72,13.19
				v8.66H24.2v-8.66H8.72z M43.78,24.02H8.72v10.01h35.06V24.02z M61.46,13.19H45.98v8.66h15.48V13.19z M7.63,63.51
				c-1.8,0-3.26,1.46-3.26,3.25c0,1.79,1.46,3.25,3.26,3.25h53.36l7.06-3.25l-7.06-3.25H7.63z M13.01,67.82H7.63
				c-0.59,0-1.07-0.48-1.07-1.06c0-0.59,0.48-1.06,1.07-1.06h5.39V67.82z M60.51,67.82h-45.3v-2.12h45.3l2.31,1.06L60.51,67.82z
				 M6.51,10.93h57.03v35.01h2.19V0H4.31v45.94h2.19V10.93z M6.51,2.18h57.03v6.56H6.51V2.18z M23.99,6.6h37.37V4.42H23.99V6.6z
				 M8.72,45.94h25.24v-9.79H8.72V45.94z M10.91,38.34h20.85v5.41H10.91V38.34z M61.46,36.15H36.23v9.79h25.24V36.15z M59.27,43.75
				H38.42v-5.41h20.85V43.75z M27.35,13.19v8.66h15.48v-8.66H27.35z M40.64,19.66h-11.1v-4.28h11.1V19.66z M0,48.18v13.08h70V48.18
				H0z M67.81,59.07H2.19v-8.71h2.97v0.97v1.09h2.19v-1.09v-0.97h2.19v0.97v1.09h2.19v-1.09v-0.97h2.19v0.97v1.09h2.19v-1.09v-0.97
				h2.19v0.97v1.09h2.19v-1.09v-0.97h2.19v0.97v1.09h2.19v-1.09v-0.97h2.19v0.97v1.09h2.19v-1.09v-0.97h2.19v0.97v1.09h2.19v-1.09
				v-0.97h2.19v0.97v1.09h2.19v-1.09v-0.97h2.19v0.97v1.09h2.19v-1.09v-0.97h2.19v0.97v1.09h2.19v-1.09v-0.97H49v0.97v1.09h2.19
				v-1.09v-0.97h2.19v0.97v1.09h2.19v-1.09v-0.97h2.19v0.97v1.09h2.19v-1.09v-0.97h2.19v0.97v1.09h2.19v-1.09v-0.97h3.47V59.07z
				 M61.46,24.02H45.98v10.01h15.48V24.02z M59.27,31.84h-11.1V26.2h11.1V31.84z"/>
		</g>
	</g>
</g>
<g id="Layer_8" class="st0">
	<g class="st1">
		<g>
			<path class="st4" d="M21.54,57.91c-0.52,0-0.95,0.42-0.95,0.95s0.42,0.95,0.95,0.95h15.03c0.52,0,0.95-0.42,0.95-0.95
				s-0.42-0.95-0.95-0.95H21.54z M7.38,51.13c0,0.52,0.42,0.95,0.95,0.95h20.57c0.52,0,0.95-0.42,0.95-0.95s-0.43-0.95-0.95-0.95
				H8.33C7.81,50.18,7.38,50.6,7.38,51.13z M42.46,54.99c0-0.52-0.42-0.95-0.95-0.95H22.64c-0.52,0-0.95,0.42-0.95,0.95
				c0,0.52,0.42,0.95,0.95,0.95h18.87C42.03,55.94,42.46,55.52,42.46,54.99z M19.95,54.99c0-0.52-0.42-0.95-0.95-0.95H8.33
				c-0.52,0-0.95,0.42-0.95,0.95c0,0.52,0.42,0.95,0.95,0.95H19C19.52,55.94,19.95,55.52,19.95,54.99z M48.03,12.01h-4.81v19.94
				h4.81V12.01z M56.66,14.86h-4.81v17.09h4.81V14.86z M18.24,57.91H8.33c-0.52,0-0.95,0.42-0.95,0.95s0.42,0.95,0.95,0.95h9.91
				c0.52,0,0.95-0.42,0.95-0.95S18.76,57.91,18.24,57.91z M39.4,15.2h-4.81v16.75h4.81V15.2z M32.55,52.07h15.03
				c0.52,0,0.95-0.42,0.95-0.95s-0.42-0.95-0.95-0.95H32.55c-0.52,0-0.95,0.42-0.95,0.95S32.03,52.07,32.55,52.07z M15.42,32.52
				c3.18,0,6.07-1.23,8.24-3.24l-8.24-8.23c0,0,1.66-0.33,3.75-0.75c3.52-0.7,8.26-1.64,8.26-1.64c-0.84-5.88-5.89-10.4-12.01-10.4
				c-6.71,0-12.14,5.43-12.14,12.13C3.28,27.09,8.71,32.52,15.42,32.52z M60.79,50.18h-9.91c-0.52,0-0.95,0.42-0.95,0.95
				s0.42,0.95,0.95,0.95h9.91c0.52,0,0.95-0.42,0.95-0.95S61.32,50.18,60.79,50.18z M60.79,54.05H44.81c-0.52,0-0.95,0.42-0.95,0.95
				c0,0.52,0.42,0.95,0.95,0.95h15.98c0.52,0,0.95-0.42,0.95-0.95C61.74,54.47,61.32,54.05,60.79,54.05z M60.48,8.27v23.68h4.81
				V8.27H60.48z M60.79,57.91H40.22c-0.52,0-0.95,0.42-0.95,0.95s0.42,0.95,0.95,0.95h20.58c0.52,0,0.95-0.42,0.95-0.95
				S61.32,57.91,60.79,57.91z M25.18,38.95c0-1.32-1.07-2.39-2.39-2.39s-2.39,1.07-2.39,2.39c0,1.32,1.07,2.39,2.39,2.39
				S25.18,40.26,25.18,38.95z M47.58,61.78H27.34c-0.52,0-0.95,0.42-0.95,0.95c0,0.52,0.42,0.95,0.95,0.95h20.24
				c0.52,0,0.95-0.42,0.95-0.95C48.53,62.2,48.11,61.78,47.58,61.78z M10.44,38.95c0-1.32-1.07-2.39-2.39-2.39
				c-1.32,0-2.39,1.07-2.39,2.39c0,1.32,1.07,2.39,2.39,2.39C9.37,41.33,10.44,40.26,10.44,38.95z M17.81,38.95
				c0-1.32-1.07-2.39-2.39-2.39c-1.32,0-2.39,1.07-2.39,2.39c0,1.32,1.07,2.39,2.39,2.39C16.74,41.33,17.81,40.26,17.81,38.95z
				 M23.7,61.78H8.33c-0.52,0-0.95,0.42-0.95,0.95c0,0.52,0.42,0.95,0.95,0.95H23.7c0.52,0,0.95-0.42,0.95-0.95
				C24.65,62.2,24.22,61.78,23.7,61.78z"/>
		</g>
	</g>
	<path class="st5" d="M2,0h66c1.1,0,2,0.9,2,2v66c0,1.1-0.9,2-2,2H2c-1.1,0-2-0.9-2-2V2C0,0.9,0.9,0,2,0z"/>
	<path class="st3" d="M27.44,21.65c0-0.38-0.04-0.76-0.09-1.12l-7.8,1.55l5.35,5.35C26.46,25.98,27.44,23.93,27.44,21.65z"/>
</g>
<g id="Layer_9">
	<g>
		<g>
			<path class="st4" d="M18.04,2.92h23.75v9.22c0,0.81,0.65,1.46,1.45,1.46h9.13v14.9l2.45-1.91l0,0l0.44-0.35v-14.1
				c0-0.19-0.04-0.38-0.11-0.55c-0.02-0.06-0.08-0.11-0.11-0.16c-0.06-0.11-0.12-0.22-0.21-0.32l-0.01-0.01c0,0,0,0,0,0l0,0
				L44.28,0.44C44.01,0.17,43.65,0,43.24,0c-0.03,0-0.07,0.01-0.1,0.01C43.11,0.01,43.08,0,43.05,0H16.6c-0.8,0-1.45,0.65-1.45,1.46
				v46.25h2.9V2.92z M44.69,5.13l5.6,5.55h-5.6V5.13z M55.27,47.71v-8.54l-2.9,2.26v6.28H55.27z M21.62,24.73h27.17v-2.92H21.62
				V24.73z M21.62,15.74v2.92h15.81v-2.92H21.62z M21.62,30.8h27.17v-2.92H21.62V30.8z M21.62,36.87h20.04l3.75-2.92H21.62V36.87z
				 M38.02,40.01H21.62v2.92h15.11l0.58-1.34l0,0l0.59-1.36C37.94,40.16,37.98,40.09,38.02,40.01z M39.23,40.83L39.23,40.83
				l-1.75,4.03c-0.13,0.26-0.18,0.55-0.14,0.86c0.11,0.8,0.84,1.36,1.63,1.25l0,0l4.34-0.61c0.28-0.02,0.55-0.12,0.79-0.3l0,0
				l17.1-13.34c0.03-0.02,0.06-0.04,0.09-0.07c0.63-0.49,0.75-1.41,0.26-2.05l0,0l-2.59-3.38c-0.02-0.03-0.04-0.06-0.07-0.09
				c-0.49-0.64-1.4-0.76-2.03-0.26l0,0L39.76,40.2C39.54,40.35,39.35,40.56,39.23,40.83z M57.48,30.06l0.89,1.16l-2.74,2.13
				l-0.89-1.16L57.48,30.06z M41.73,42.34l10.73-8.37l0.89,1.16L42.63,43.5l-1.5,0.21L41.73,42.34z M68.55,15.74H55.99v2.92H67.1
				v29.78H2.9V18.66h11.53v-2.92H1.45C0.65,15.74,0,16.39,0,17.2v42.05c0,0.81,0.65,1.46,1.45,1.46h32.1v6.37h-8.96
				c-0.8,0-1.45,0.65-1.45,1.46c0,0.81,0.65,1.46,1.45,1.46h20.82c0.8,0,1.45-0.65,1.45-1.46c0-0.81-0.65-1.46-1.45-1.46h-8.96
				v-6.37h32.1c0.8,0,1.45-0.65,1.45-1.46V17.2C70,16.39,69.35,15.74,68.55,15.74z M67.1,57.79H2.9v-6.42H67.1V57.79z M63.97,53
				h-2.85v2.92h2.85V53z M59.32,53h-2.85v2.92h2.85V53z"/>
		</g>
	</g>
</g>
</svg>
