<?xml version="1.0" encoding="utf-8"?>
<!-- Generator: Adobe Illustrator 23.0.3, SVG Export Plug-In . SVG Version: 6.00 Build 0)  -->
<svg version="1.1" xmlns="http://www.w3.org/2000/svg" xmlns:xlink="http://www.w3.org/1999/xlink" x="0px" y="0px"
	 viewBox="0 0 70 70" style="enable-background:new 0 0 70 70;" xml:space="preserve">
<style type="text/css">
	.st0{display:none;}
	.st1{display:inline;}
	.st2{fill-rule:evenodd;clip-rule:evenodd;fill:#1E2530;}
	.st3{display:inline;fill:#1E2530;}
	.st4{fill:#1E2530;}
</style>
<g id="Layer_1" class="st0">
	<g class="st1">
		<g>
			<path class="st2" d="M58.92,40.06l-13.57-5.81c-1.92-0.93-3.35-2.39-3.86-3.67c1.83-1.99,3.29-4.56,3.87-6.86l0.84-0.5
				c1.13-3.11,1.48-5.87,1.34-8.42l-0.62-0.48c0.16-2.31,0.1-6.45-0.99-8.48C44.08,2.41,39.42,0.03,35.71,0h-1.42
				c-3.71,0.03-8.37,2.41-10.21,5.83c-1.09,2.03-1.16,6.18-0.99,8.48l-0.62,0.48c-0.14,2.54,0.22,5.31,1.34,8.42l0.84,0.5
				c0.59,2.3,2.05,4.87,3.87,6.86c-0.52,1.28-1.94,2.75-3.86,3.67l-13.57,5.81c-5.38,2-5.77,16.63-5.77,21.61l0.02,1.37
				c0,0,4.5,6.96,29.69,6.96c22.1,0,29.62-6.96,29.62-6.96l0.02-1.37C64.68,56.69,64.29,42.05,58.92,40.06z"/>
		</g>
	</g>
</g>
<g id="Layer_2" class="st0">
	<path class="st3" d="M10,39c2-1,16-6,17-8c-2-3-3-5-3-5l0.04-0.04l-3.36-1.44c-0.99-0.48-1.73-1.24-2-1.9
		c0.95-1.03,1.7-2.36,2-3.54l0.44-0.26c0.58-1.61,0.77-3.04,0.69-4.35l-0.32-0.25c0.08-1.19,0.05-3.34-0.51-4.38
		c-0.95-1.77-3.36-3-5.28-3.01h-0.73c-1.92,0.02-4.33,1.24-5.28,3.01c-0.56,1.05-0.6,3.19-0.51,4.38l-0.32,0.25
		c-0.07,1.31,0.11,2.74,0.69,4.35l0.44,0.26c0.3,1.19,1.06,2.52,2,3.54c-0.27,0.66-1,1.42-2,1.9l-7.01,3C0.2,28.56,0,36.12,0,38.69
		l0.01,0.71c0,0,1.2,1.85,6.69,2.9C6.7,42.3,8,40,10,39z"/>
	<path class="st3" d="M60,39.18c-2-1-16-6-17-8c2-3,3-5,3-5l-0.04-0.04l3.36-1.44c0.99-0.48,1.73-1.24,2-1.9
		c-0.95-1.03-1.7-2.36-2-3.54L48.87,19c-0.58-1.61-0.77-3.04-0.69-4.35l0.32-0.25c-0.08-1.19-0.05-3.34,0.51-4.38
		c0.95-1.77,3.36-3,5.28-3.01h0.73c1.92,0.02,4.33,1.24,5.28,3.01c0.56,1.05,0.6,3.19,0.51,4.38l0.32,0.25
		c0.07,1.31-0.11,2.74-0.69,4.35l-0.44,0.26c-0.3,1.19-1.06,2.52-2,3.54c0.27,0.66,1,1.42,2,1.9l7.01,3C69.8,28.73,70,36.3,70,38.87
		l-0.01,0.71c0,0-1.2,1.85-6.69,2.9C63.3,42.48,62,40.18,60,39.18z"/>
</g>
<g id="Layer_3" class="st0">
	<g class="st1">
		<g>
			<path class="st2" d="M51.69,26.27l-9.18-3.81c-1.3-0.61-2.26-1.57-2.61-2.41c1.24-1.3,2.22-2.99,2.62-4.5l0.57-0.33
				c0.76-2.04,1-3.85,0.91-5.52l-0.42-0.32c0.11-1.51,0.07-4.23-0.67-5.57c-1.24-2.25-4.4-3.8-6.91-3.82h-0.96
				c-2.51,0.02-5.66,1.58-6.91,3.82c-0.74,1.33-0.78,4.05-0.67,5.57l-0.42,0.32c-0.09,1.67,0.15,3.48,0.91,5.52l0.57,0.33
				c0.4,1.51,1.38,3.19,2.62,4.5c-0.35,0.84-1.31,1.8-2.61,2.41l-9.18,3.81c-3.64,1.31-3.9,10.91-3.9,14.17l0.01,0.9
				c0,0,3.05,4.57,20.08,4.57c14.95,0,20.04-4.57,20.04-4.57l0.02-0.9C55.59,37.18,55.33,27.58,51.69,26.27z"/>
		</g>
	</g>
</g>
<g id="Layer_4" class="st0">
	<g class="st1">
		<g>
			<path class="st2" d="M57.65,33.46v6.46c1.02,1.19,1.58,2.48,1.58,3.82c0,5.95-10.85,10.77-24.23,10.77s-24.23-4.82-24.23-10.77
				c0-1.35,0.57-2.65,1.6-3.84v-6.45C4.81,37.26,0,42.92,0,49.26C0,60.71,15.67,70,35,70s35-9.29,35-20.74
				C70,42.93,65.2,37.27,57.65,33.46z"/>
		</g>
	</g>
</g>
<g id="Layer_5">
	<g>
		<g>
			<path class="st4" d="M34.73,17.24c-1.62,0-2.93,1.31-2.93,2.92s1.31,2.92,2.93,2.92c1.62,0,2.93-1.31,2.93-2.92
				S36.35,17.24,34.73,17.24z M44.42,17.24c-1.62,0-2.93,1.31-2.93,2.92s1.31,2.92,2.93,2.92s2.93-1.31,2.93-2.92
				S46.04,17.24,44.42,17.24z M69.12,4.21C67.78,1.63,65.07,0,62.16,0H26.67c-1.25,0-2.49,0.3-3.61,0.87
				c-0.72,0.37-1.38,0.85-1.94,1.41c-1.47,1.46-2.3,3.45-2.3,5.51v25.73c0,1.25,0.3,2.48,0.88,3.58c0.37,0.72,0.86,1.37,1.42,1.93
				c1.47,1.46,3.47,2.28,5.55,2.28l22.72,0.01l13.63,13.55V41.28c1.5-0.16,2.93-0.76,4.09-1.71c1.8-1.46,2.89-3.71,2.89-6.04V7.8
				C70,6.55,69.7,5.32,69.12,4.21z M65.51,33.53c0,0.65-0.2,1.26-0.53,1.78c-0.61,0.94-1.69,1.55-2.82,1.55l-3.63-0.01v7.23
				l-7.27-7.22l-24.59,0.01c-1.82,0-3.35-1.52-3.35-3.33V7.8c0-1.81,1.53-3.33,3.35-3.33h35.48c1.14,0,2.21,0.61,2.82,1.55
				c0.34,0.53,0.53,1.15,0.53,1.78V33.53z M54.1,17.24c-1.62,0-2.93,1.31-2.93,2.92s1.31,2.92,2.93,2.92c1.62,0,2.93-1.31,2.93-2.92
				S55.72,17.24,54.1,17.24z M47.59,45.64l-21.76-0.01c-1.53,0-3.06-0.35-4.44-1.01c-1.96-0.95-3.55-2.5-4.55-4.42
				c-0.74-1.41-1.13-3.03-1.13-4.62V16.14H7.84c-2.91,0-5.62,1.63-6.97,4.21C0.3,21.46,0,22.69,0,23.94c0,0,0,14.6,0,19.49
				c0,1.32,0,5.22,0,5.22c0,2.33,1.09,4.58,2.89,6.04c1.16,0.94,2.59,1.54,4.09,1.71V70l13.63-13.55l22.72-0.01
				c3.15,0,6.03-1.92,7.23-4.78c0,0-0.67-3.74-1.38-4.44C48.41,46.44,47.59,45.64,47.59,45.64z"/>
		</g>
	</g>
</g>
</svg>
