<?xml version="1.0" encoding="utf-8"?>
<!-- Generator: Adobe Illustrator 25.0.1, SVG Export Plug-In . SVG Version: 6.00 Build 0)  -->
<svg version="1.1" id="Layer_1" xmlns="http://www.w3.org/2000/svg" xmlns:xlink="http://www.w3.org/1999/xlink" x="0px" y="0px"
	 viewBox="0 0 25 25" style="enable-background:new 0 0 25 25;" xml:space="preserve">
<rect x="11.5" y="9.9" width="10.5" height="0.8"/>
<rect x="11.5" y="13.2" width="10.5" height="0.8"/>
<rect x="11.5" y="16.4" width="10.5" height="0.8"/>
<path d="M20.7,5.7v0.5H4.3V5.7H20.7 M21.5,4.9h-18v2.2h18C21.5,7.1,21.5,4.9,21.5,4.9z"/>
<path d="M9.2,11.2V16h-5v-4.8H9.2 M10,10.3H3.5v6.5H10V10.3z"/>
<path d="M0.4,0.4v24.1h24.1V0.4H0.4z M1.3,23.6V1.4h22.4v22.2H1.3z"/>
</svg>
