<?xml version="1.0" encoding="utf-8"?>
<!-- Generator: Adobe Illustrator 23.0.3, SVG Export Plug-In . SVG Version: 6.00 Build 0)  -->
<svg version="1.1" xmlns="http://www.w3.org/2000/svg" xmlns:xlink="http://www.w3.org/1999/xlink" x="0px" y="0px"
	 viewBox="0 0 35 35" style="enable-background:new 0 0 35 35;" xml:space="preserve">
<style type="text/css">
	.st0{display:none;}
	.st1{display:inline;}
	.st2{fill:#2C3545;}
	.st3{display:inline;fill:#2C3545;}
	.st4{fill-rule:evenodd;clip-rule:evenodd;fill:#2C3545;}
	.st5{fill-rule:evenodd;clip-rule:evenodd;fill:none;stroke:#2C3545;stroke-miterlimit:10;}
</style>
<g id="Layer_1" class="st0">
	<g class="st1">
		<g>
			<path class="st2" d="M24.13,25.03h6.51V23.4h-6.51V25.03z M21.92,25.03h1.63V23.4h-1.63V25.03z M24.13,27.14h6.51V25.5h-6.51
				V27.14z M21.92,27.14h1.63V25.5h-1.63V27.14z M24.13,29.24h6.51v-1.63h-6.51V29.24z M21.92,29.24h1.63v-1.63h-1.63V29.24z
				 M17.35,18.49H3.59v1.46h13.76V18.49z M18.87,15.77H3.59v1.46h15.28V15.77z M21.24,13.05H3.59v1.46h17.64V13.05z M18.47,22.42
				v-1.2H3.59v1.46h14.76C18.39,22.59,18.43,22.5,18.47,22.42z M31.93,19.67c0.05,0.05,0.11,0.08,0.16,0.13V1.67
				c0-0.88-0.72-1.6-1.6-1.6H7.41c-0.88,0-1.6,0.72-1.6,1.6v1.31H4.51c-0.88,0-1.6,0.72-1.6,1.6V5.9H1.6C0.72,5.9,0,6.62,0,7.51
				v25.96c0,0.88,0.72,1.6,1.6,1.6h23.08c0.17,0,0.33-0.03,0.48-0.07c-0.06-0.01-0.12-0.02-0.18-0.03c0.42,0.06,0.86,0.11,1.3,0.11
				c4.81,0,8.72-3.93,8.72-8.75C35,23.66,33.81,21.28,31.93,19.67z M7.27,1.67c0-0.08,0.07-0.15,0.15-0.15h23.08
				c0.08,0,0.15,0.07,0.15,0.15v17.07c0.09,0.05,0.17,0.11,0.26,0.17c-0.59-0.37-1.22-0.67-1.88-0.89c0.06,0.02,0.12,0.03,0.17,0.05
				V4.59c0-0.88-0.72-1.6-1.6-1.6H7.27V1.67z M4.36,4.59c0-0.08,0.07-0.15,0.15-0.15h23.08c0.08,0,0.15,0.07,0.15,0.15v13.1
				c0.05,0.01,0.1,0.02,0.14,0.03c-0.52-0.1-1.05-0.15-1.6-0.15V7.51c0-0.88-0.72-1.6-1.6-1.6H4.36V4.59z M21.46,33.61H1.6
				c-0.08,0-0.15-0.07-0.15-0.15V7.51c0-0.08,0.07-0.15,0.15-0.15h23.08c0.08,0,0.15,0.07,0.15,0.15v10.19
				c0.11-0.02,0.22-0.03,0.33-0.04c-3.61,0.47-6.53,3.16-7.35,6.66c0.03-0.13,0.05-0.25,0.09-0.38H3.59v1.46h14.02
				c0.03-0.27,0.07-0.53,0.12-0.78c-0.11,0.55-0.17,1.12-0.17,1.71c0,0.2,0.02,0.4,0.03,0.59c-0.01-0.09-0.02-0.17-0.02-0.25H3.59
				v1.46h14.05v-0.64c0-0.04-0.01-0.07-0.01-0.11c0.09,0.77,0.28,1.51,0.56,2.21c-0.03-0.07-0.06-0.13-0.08-0.2H3.59v1.46h15.22
				c-0.05-0.08-0.08-0.16-0.13-0.23c0.73,1.3,1.78,2.38,3.04,3.16C21.64,33.72,21.55,33.67,21.46,33.61z M26.28,33.32
				c-3.85,0-6.98-3.14-6.98-7c0-3.86,3.13-7,6.98-7c3.85,0,6.98,3.14,6.98,7C33.26,30.18,30.13,33.32,26.28,33.32z"/>
		</g>
	</g>
</g>
<g id="Layer_2">
	<g>
		<g>
			<path class="st2" d="M31.13,31.17v1.97H1.89V1.86h29.24v19.25c0.34-0.07,0.7-0.11,1.07-0.11c0.28,0,0.55,0.04,0.82,0.08V1.86
				c0-1.03-0.84-1.86-1.88-1.86H1.89C0.85,0,0.01,0.83,0.01,1.86v31.27c0,1.03,0.84,1.86,1.88,1.86h29.24
				c1.04,0,1.88-0.84,1.88-1.86V31.2c-0.27,0.04-0.54,0.08-0.82,0.08C31.83,31.28,31.47,31.24,31.13,31.17z M29.39,21.82v-8.42
				l-8.77,4.96l-9.91-7.61l-7.33,7.95v12.61h26v-0.86c-1.43-0.91-2.39-2.5-2.39-4.32C27,24.33,27.96,22.74,29.39,21.82z
				 M34.19,24.96h-1.33v-1.19c0-0.42-0.36-0.77-0.81-0.77s-0.81,0.35-0.81,0.77v1.19h-1.33c-0.44,0-0.81,0.35-0.81,0.77
				c0,0.42,0.36,0.77,0.81,0.77h1.33v1.19c0,0.42,0.36,0.77,0.81,0.77s0.81-0.35,0.81-0.77V26.5h1.33c0.44,0,0.81-0.35,0.81-0.77
				C35,25.31,34.64,24.96,34.19,24.96z"/>
		</g>
	</g>
	<circle class="st2" cx="21.5" cy="9.5" r="3.5"/>
</g>
<g id="Layer_3" class="st0">
	<path class="st3" d="M23.6,11.06c0.01,2.52-1.33,4.85-3.51,6.11s-4.87,1.26-7.05,0s-3.52-3.6-3.51-6.11
		c-0.01-2.52,1.33-4.85,3.51-6.11c2.18-1.26,4.87-1.26,7.05,0C22.27,6.21,23.61,8.54,23.6,11.06z"/>
	<g class="st1">
		<g>
			<path class="st2" d="M31.13,31.17v1.97H1.89V1.86h29.24v19.25c0.34-0.07,0.7-0.11,1.07-0.11c0.28,0,0.55,0.04,0.82,0.08V1.86
				c0-1.03-0.84-1.86-1.88-1.86H1.89C0.85,0,0.01,0.83,0.01,1.86v31.27c0,1.03,0.84,1.86,1.88,1.86h29.24
				c1.04,0,1.88-0.84,1.88-1.86V31.2c-0.27,0.04-0.54,0.08-0.82,0.08C31.83,31.28,31.47,31.24,31.13,31.17z M34.19,24.96h-1.33
				v-1.19c0-0.42-0.36-0.77-0.81-0.77s-0.81,0.35-0.81,0.77v1.19h-1.33c-0.44,0-0.81,0.35-0.81,0.77c0,0.42,0.36,0.77,0.81,0.77
				h1.33v1.19c0,0.42,0.36,0.77,0.81,0.77s0.81-0.35,0.81-0.77V26.5h1.33c0.44,0,0.81-0.35,0.81-0.77
				C35,25.31,34.64,24.96,34.19,24.96z"/>
		</g>
	</g>
	<path class="st3" d="M27,26.14c0-0.97,0.29-1.88,0.77-2.65c-1.33-2.55-3.5-4.59-6.15-5.75c-1.55-0.68-3.26-1.05-5.05-1.05
		s-3.51,0.38-5.05,1.05c-4.06,1.77-7,5.62-7.51,10.19c0,1.55,1.17,2.81,2.72,2.81h19.68c0.86,0,1.59-0.39,2.09-1
		C27.57,28.81,27,27.54,27,26.14z"/>
</g>
<g id="Layer_4" class="st0">
	<g class="st1">
		<g>
			<g>
				<path class="st4" d="M30.59,9.28h-1.57V7.81c0-0.52-0.43-0.95-0.95-0.95s-0.95,0.43-0.95,0.95v1.47h-1.57
					c-0.52,0-0.95,0.43-0.95,0.95c0,0.52,0.43,0.95,0.95,0.95h1.57v1.47c0,0.52,0.43,0.95,0.95,0.95s0.95-0.43,0.95-0.95v-1.47h1.57
					c0.52,0,0.95-0.43,0.95-0.95C31.54,9.71,31.11,9.28,30.59,9.28z"/>
			</g>
		</g>
		<path class="st5" d="M28,3.48c3.87,0,7,3.14,7,7.01s-3.13,7.01-7,7.01s-7-3.14-7-7.01S24.13,3.48,28,3.48z"/>
		<path class="st2" d="M20.42,10.49c0-3.34,2.16-6.17,5.15-7.18C25,1.4,23.26,0,21.18,0H4.61C2.06,0,0,2.08,0,4.65v13.02
			c0,1.43,1.14,2.6,2.56,2.62c0.55,0,1.09-0.18,1.55-0.5l7.37-6.3c0.48-0.31,1.05-0.48,1.62-0.46h7.76
			C20.58,12.23,20.42,11.38,20.42,10.49z"/>
		<path class="st2" d="M33.37,15.84c-0.45,0.45-0.96,0.84-1.51,1.17c0.77,0.49,1.29,1.36,1.29,2.35v13.02
			c0,0.28-0.16,0.54-0.41,0.67c-0.21,0.12-0.47,0.12-0.68,0l-7.61-6.42c-0.76-0.51-1.65-0.78-2.56-0.78h-8.09
			c-1.52,0-2.75-1.24-2.76-2.77v-3.72c0-1.54,1.24-2.79,2.76-2.79h9.66c-0.69-0.52-1.3-1.14-1.78-1.86h-7.88
			c-2.54,0-4.61,2.08-4.61,4.65v3.72c0,2.57,2.06,4.65,4.61,4.65h8.09c0.51,0,1.02,0.14,1.46,0.41l7.61,6.42
			C31.39,34.84,31.89,35,32.4,35c0.43,0,0.85-0.11,1.23-0.32c0.84-0.46,1.36-1.34,1.36-2.31V19.36C35,17.95,34.36,16.69,33.37,15.84
			z"/>
	</g>
</g>
<g id="Layer_5" class="st0">
	<g class="st1">
		<path class="st2" d="M28.87,17.5c0,0-4.59-6.09-11.37-6.09S6.13,17.5,6.13,17.5s4.59,6.09,11.37,6.09S28.87,17.5,28.87,17.5
			L28.87,17.5z M26.67,17.5c0,0-4.11,4.55-9.17,4.55c-5.07,0-9.17-4.55-9.17-4.55s4.11-4.55,9.17-4.55
			C22.57,12.95,26.67,17.5,26.67,17.5L26.67,17.5z M20.89,17.5c0-1.87-1.52-3.38-3.39-3.38c-1.87,0-3.39,1.51-3.39,3.38
			s1.52,3.38,3.39,3.38C19.37,20.88,20.89,19.37,20.89,17.5L20.89,17.5z"/>
		<path class="st2" d="M33,0H2c-1.1,0-2,0.83-2,1.86v31.27C0,34.16,0.89,35,2,35H33c1.1,0,2-0.84,2-1.86V1.86C35,0.83,34.1,0,33,0z
			 M33,33.14H2V1.86H33V33.14z"/>
	</g>
</g>
<g id="Layer_6" class="st0">
	<path class="st3" d="M35.03,11.69v21.15c0,0.91-0.64,1.55-0.64,1.55c-0.64,0.64-1.55,0.64-1.55,0.64H2.21
		c-0.91,0-1.55-0.64-1.55-0.64c-0.64-0.64-0.64-1.55-0.64-1.55V2.21c0-0.91,0.64-1.55,0.64-1.55C1.3,0.03,2.21,0.03,2.21,0.03h21.15
		c0.91,0,2.01,0.46,2.01,0.46c1.09,0.46,1.73,1.09,1.73,1.09l6.38,6.38c0.64,0.64,1.09,1.73,1.09,1.73
		C35.03,10.78,35.03,11.69,35.03,11.69z M20.44,10.96v-8.5c0-0.3-0.22-0.51-0.22-0.51c-0.22-0.22-0.51-0.22-0.51-0.22h-4.38
		c-0.3,0-0.51,0.22-0.51,0.22c-0.22,0.22-0.22,0.51-0.22,0.51v8.5c0,0.3,0.22,0.51,0.22,0.51c0.22,0.22,0.51,0.22,0.51,0.22h4.38
		c0.3,0,0.51-0.22,0.51-0.22C20.44,11.26,20.44,10.96,20.44,10.96z M29.19,33.32h4.12V11.69c0-0.32-8.86-9.73-8.86-9.73
		c-0.55-0.23-2.3-0.23-2.3-0.23v9.48c0,0.91-0.64,1.55-0.64,1.55c-0.64,0.64-1.55,0.64-1.55,0.64H9.25c-0.91,0-1.55-0.64-1.55-0.64
		c-0.64-0.64-0.64-1.55-0.64-1.55V1.73H1.73v31.58h4.12V22.63c0-0.91,0.64-1.55,0.64-1.55c0.64-0.64,1.55-0.64,1.55-0.64H27
		c0.91,0,1.55,0.64,1.55,0.64c0.64,0.64,0.64,1.55,0.64,1.55V33.32z M7.57,33.32h19.91V22.15H7.57V33.32z"/>
</g>
</svg>
