<?xml version="1.0" encoding="utf-8"?>
<!-- Generator: Adobe Illustrator 24.3.0, SVG Export Plug-In . SVG Version: 6.00 Build 0)  -->
<svg version="1.1" id="Layer_1" xmlns="http://www.w3.org/2000/svg" xmlns:xlink="http://www.w3.org/1999/xlink" x="0px" y="0px"
	 viewBox="0 0 17.4 17.4" style="enable-background:new 0 0 17.4 17.4;" xml:space="preserve">
<style type="text/css">
	.st0{fill:#41B649;}
	.st1{fill:#FFFFFF;}
</style>
<circle class="st0" cx="8.7" cy="8.7" r="8.2"/>
<path class="st1" d="M13.6,7.2h-3.6V3.6C10.1,2.7,9.4,2,8.5,2l0,0C7.6,2,6.9,2.7,6.9,3.6v3.6H3.3c-0.9,0-1.6,0.7-1.6,1.6l0,0
	c0,0.9,0.7,1.6,1.6,1.6h3.6V14c0,0.9,0.7,1.6,1.6,1.6l0,0c0.9,0,1.6-0.7,1.6-1.6v-3.6h3.6c0.9,0,1.6-0.7,1.6-1.6l0,0
	C15.2,7.9,14.5,7.2,13.6,7.2z"/>
</svg>
