<?xml version="1.0" encoding="utf-8"?>
<!-- Generator: Adobe Illustrator 24.2.0, SVG Export Plug-In . SVG Version: 6.00 Build 0)  -->
<svg version="1.1" id="Layer_1" xmlns="http://www.w3.org/2000/svg" xmlns:xlink="http://www.w3.org/1999/xlink" x="0px" y="0px"
	 viewBox="0 0 423.5 421.4" style="enable-background:new 0 0 423.5 421.4;" xml:space="preserve">
<style type="text/css">
	.st0{fill:#1585BC;}
</style>
<g>
	<g>
		<path class="st0" d="M407.4,381.7c3.9,3.9,3.9,10.2,0,14.1l-10.9,10.9c-3.9,3.9-10.2,3.9-14.1,0L213.2,237.6L44,406.8
			c-3.9,3.9-10.2,3.9-14.1,0L19,395.9c-3.9-3.9-3.9-10.2,0-14.1l169.2-169.2L19,43.3c-3.9-3.9-3.9-10.2,0-14.1l10.9-10.9
			c3.9-3.9,10.2-3.9,14.1,0l169.2,169.2L382.4,18.3c3.9-3.9,10.2-3.9,14.1,0l10.9,10.9c3.9,3.9,3.9,10.2,0,14.1L238.3,212.5
			L407.4,381.7z"/>
	</g>
</g>
</svg>
