<?xml version="1.0" encoding="utf-8"?>
<!-- Generator: Adobe Illustrator 24.2.0, SVG Export Plug-In . SVG Version: 6.00 Build 0)  -->
<svg version="1.1" id="Ñëîé_1" xmlns="http://www.w3.org/2000/svg" xmlns:xlink="http://www.w3.org/1999/xlink" x="0px" y="0px"
	 viewBox="0 0 234 250.7" style="enable-background:new 0 0 234 250.7;" xml:space="preserve">
<style type="text/css">
	.st0{fill-rule:evenodd;clip-rule:evenodd;fill:#15BEF0;}
</style>
<path class="st0" d="M6.5,54.9l9.1,104.4c2.2,25.6,22.8,46.9,42.2,46.9l41-0.2l0,0l31.5,35.2c6.5,7.2,19.6,2.1,20.9-8.3l3.3-26.7
	H172c19.4,0,37.8-21.6,41.6-46.9l12.4-83.2c3.8-25.3-14.1-49.8-41.5-52.8L49.9,8.9C26.5,6.8,4.3,29.3,6.5,54.9z M100.1,162.9
	c0-4.4,1.6-8.2,4.8-11.4c3.2-3.1,7-4.7,11.5-4.7c4.5,0,8.4,1.6,11.5,4.7c3.2,3.2,4.8,6.9,4.8,11.4c0,4.4-1.6,8.2-4.8,11.4
	c-3.2,3.1-7,4.7-11.5,4.7c-4.5,0-8.4-1.6-11.5-4.7C101.7,171.1,100.1,167.3,100.1,162.9z M99.9,66.2c0-2.9,0.8-5.7,2.2-8.3
	c1.5-2.6,3.6-4.7,6.2-6.2c2.6-1.6,5.3-2.3,8.1-2.3c2.8,0,5.5,0.7,8.1,2.3c2.6,1.5,4.6,3.6,6.1,6.1c1.5,2.6,2.2,5.4,2.2,8.3
	c0,1.7-0.2,4-0.5,6.9l-5.4,35.3c-0.4,3.6-1,10.1-1.7,19.4h-0.1v0.4c0,4.8-4,8.8-8.8,8.8c-4.9,0-8.8-4-8.8-8.8v-0.4h0
	c-0.2-5.1-0.6-9.8-1-14.2c-1-8.8-2.9-21.7-5.7-38.6C100.2,71.3,99.9,68.4,99.9,66.2z"/>
</svg>
