<?xml version="1.0" encoding="utf-8"?>
<!-- Generator: Adobe Illustrator 24.2.1, SVG Export Plug-In . SVG Version: 6.00 Build 0)  -->
<svg version="1.1" id="Layer_1" xmlns="http://www.w3.org/2000/svg" xmlns:xlink="http://www.w3.org/1999/xlink" x="0px" y="0px"
	 viewBox="0 0 9 11" style="enable-background:new 0 0 9 11;" xml:space="preserve">
<style type="text/css">
	.st0{fill:#C3C4C4;}
</style>
<g>
	<g>
		<path class="st0" d="M8.4,6.4c-0.2-0.2-0.5-0.2-0.7,0L5,9V0.8c0-0.3-0.2-0.5-0.5-0.5S4,0.6,4,0.8V9L1.4,6.4
			c-0.2-0.2-0.5-0.2-0.7,0c-0.2,0.2-0.2,0.5,0,0.7l3.5,3.4c0,0,0,0,0,0c0,0,0.1,0.1,0.2,0.1c0.1,0,0.1,0,0.2,0c0,0,0,0,0,0
			c0,0,0,0,0,0c0.1,0,0.1,0,0.2,0c0.1,0,0.1-0.1,0.2-0.1c0,0,0,0,0,0l3.5-3.4C8.5,7,8.5,6.9,8.5,6.8C8.5,6.6,8.5,6.5,8.4,6.4z"/>
	</g>
</g>
</svg>
