<?xml version="1.0" encoding="utf-8"?>
<!-- Generator: Adobe Illustrator 23.0.3, SVG Export Plug-In . SVG Version: 6.00 Build 0)  -->
<svg version="1.1" id="Layer_1" xmlns="http://www.w3.org/2000/svg" xmlns:xlink="http://www.w3.org/1999/xlink" x="0px" y="0px"
	 viewBox="0 0 35 35" style="enable-background:new 0 0 35 35;" xml:space="preserve">
<style type="text/css">
	.st0{display:none;}
	.st1{display:inline;}
	.st2{fill:#333333;}
</style>
<g class="st0">
	<g class="st1">
		<g>
			<path class="st2" d="M24.1,25h6.5v-1.6h-6.5V25z M21.9,25h1.6v-1.6h-1.6V25z M24.1,27.1h6.5v-1.6h-6.5V27.1z M21.9,27.1h1.6v-1.6
				h-1.6V27.1z M24.1,29.2h6.5v-1.6h-6.5V29.2z M21.9,29.2h1.6v-1.6h-1.6V29.2z M17.4,18.5H3.6V20h13.8V18.5z M18.9,15.8H3.6v1.5
				h15.3C18.9,17.2,18.9,15.8,18.9,15.8z M21.2,13.1H3.6v1.5h17.6L21.2,13.1L21.2,13.1z M18.5,22.4v-1.2H3.6v1.5h14.8
				C18.4,22.6,18.4,22.5,18.5,22.4z M31.9,19.7c0,0,0.1,0.1,0.2,0.1V1.7c0-0.9-0.7-1.6-1.6-1.6H7.4c-0.9,0-1.6,0.7-1.6,1.6V3H4.5
				C3.6,3,2.9,3.7,2.9,4.6v1.3H1.6C0.7,5.9,0,6.6,0,7.5v26c0,0.9,0.7,1.6,1.6,1.6h23.1c0.2,0,0.3,0,0.5-0.1c-0.1,0-0.1,0-0.2,0
				c0.4,0.1,0.9,0.1,1.3,0.1c4.8,0,8.7-3.9,8.7-8.8C35,23.7,33.8,21.3,31.9,19.7z M7.3,1.7c0-0.1,0.1-0.1,0.2-0.1h23.1
				c0.1,0,0.1,0.1,0.1,0.1v17.1c0.1,0,0.2,0.1,0.3,0.2c-0.6-0.4-1.2-0.7-1.9-0.9c0.1,0,0.1,0,0.2,0V4.6c0-0.9-0.7-1.6-1.6-1.6H7.3
				V1.7z M4.4,4.6c0-0.1,0.1-0.2,0.2-0.2h23.1c0.1,0,0.1,0.1,0.1,0.2v13.1c0,0,0.1,0,0.1,0c-0.5-0.1-1-0.1-1.6-0.1V7.5
				c0-0.9-0.7-1.6-1.6-1.6H4.4V4.6z M21.5,33.6H1.6c-0.1,0-0.1-0.1-0.1-0.2V7.5c0-0.1,0.1-0.2,0.1-0.2h23.1c0.1,0,0.1,0.1,0.1,0.2
				v10.2c0.1,0,0.2,0,0.3,0c-3.6,0.5-6.5,3.2-7.4,6.7c0-0.1,0-0.3,0.1-0.4H3.6v1.5h14c0-0.3,0.1-0.5,0.1-0.8
				c-0.1,0.5-0.2,1.1-0.2,1.7c0,0.2,0,0.4,0,0.6c0-0.1,0-0.2,0-0.3h-14v1.5h14v-0.6c0,0,0-0.1,0-0.1c0.1,0.8,0.3,1.5,0.6,2.2
				c0-0.1-0.1-0.1-0.1-0.2H3.6v1.5h15.2c0-0.1-0.1-0.2-0.1-0.2c0.7,1.3,1.8,2.4,3,3.2C21.6,33.7,21.5,33.7,21.5,33.6z M26.3,33.3
				c-3.9,0-7-3.1-7-7s3.1-7,7-7s7,3.1,7,7C33.3,30.2,30.1,33.3,26.3,33.3z"/>
		</g>
	</g>
</g>
<g class="st0">
	<g class="st1">
		<g>
			<path class="st2" d="M31.1,31.2v2H1.9V1.9h29.2v19.3c0.3-0.1,0.7-0.1,1.1-0.1c0.3,0,0.5,0,0.8,0.1V1.9c0-1-0.8-1.9-1.9-1.9H1.9
				C0.9,0,0,0.8,0,1.9v31.3c0,1,0.8,1.9,1.9,1.9h29.2c1,0,1.9-0.8,1.9-1.9v-1.9c-0.3,0-0.5,0.1-0.8,0.1
				C31.8,31.3,31.5,31.2,31.1,31.2z M29.4,21.8v-8.4l-8.8,5l-9.9-7.6l-7.3,8v12.6h26v-0.9C27.9,29.5,27,28,27,26.1
				C27,24.3,28,22.7,29.4,21.8z M34.2,25h-1.3v-1.2c0-0.4-0.4-0.8-0.8-0.8s-0.8,0.4-0.8,0.8V25h-1.3c-0.4,0-0.8,0.4-0.8,0.8
				s0.4,0.8,0.8,0.8h1.3v1.2c0,0.4,0.4,0.8,0.8,0.8c0.4,0,0.8-0.4,0.8-0.8v-1.2h1.3c0.4,0,0.8-0.4,0.8-0.8S34.6,25,34.2,25z"/>
		</g>
	</g>
	<g class="st1">
		<circle class="st2" cx="21.5" cy="9.5" r="3.5"/>
	</g>
</g>
<g id="Layer_3" class="st0">
	<g class="st1">
		<path class="st2" d="M23.6,11.1c0,2.5-1.3,4.8-3.5,6.1s-4.9,1.3-7.1,0s-3.5-3.6-3.5-6.1c0-2.5,1.3-4.8,3.5-6.1s4.9-1.3,7.1,0
			S23.6,8.5,23.6,11.1z"/>
	</g>
	<g class="st1">
		<g>
			<path class="st2" d="M31.1,31.2v2H1.9V1.9h29.2v19.3c0.3-0.1,0.7-0.1,1.1-0.1c0.3,0,0.5,0,0.8,0.1V1.9c0-1-0.8-1.9-1.9-1.9H1.9
				C0.9,0,0,0.8,0,1.9v31.3c0,1,0.8,1.9,1.9,1.9h29.2c1,0,1.9-0.8,1.9-1.9v-1.9c-0.3,0-0.5,0.1-0.8,0.1
				C31.8,31.3,31.5,31.2,31.1,31.2z M34.2,25h-1.3v-1.2c0-0.4-0.4-0.8-0.8-0.8s-0.8,0.4-0.8,0.8V25h-1.3c-0.4,0-0.8,0.4-0.8,0.8
				s0.4,0.8,0.8,0.8h1.3v1.2c0,0.4,0.4,0.8,0.8,0.8c0.4,0,0.8-0.4,0.8-0.8v-1.2h1.3c0.4,0,0.8-0.4,0.8-0.8S34.6,25,34.2,25z"/>
		</g>
	</g>
	<g class="st1">
		<path class="st2" d="M27,26.1c0-1,0.3-1.9,0.8-2.6c-1.3-2.5-3.5-4.6-6.1-5.8c-1.5-0.7-3.3-1-5.1-1s-3.5,0.4-5.1,1
			c-4.1,1.8-7,5.6-7.5,10.2c0,1.5,1.2,2.8,2.7,2.8h19.7c0.9,0,1.6-0.4,2.1-1C27.6,28.8,27,27.5,27,26.1z"/>
	</g>
</g>
<g id="Layer_4" class="st0">
	<g class="st1">
		<g>
			<g>
				<path class="st2" d="M30.6,9.3H29V7.8c0-0.5-0.4-0.9-1-0.9s-1,0.4-1,0.9v1.5h-1.6c-0.5,0-1,0.4-1,0.9c0,0.5,0.4,0.9,1,0.9h1.6
					v1.5c0,0.5,0.4,0.9,1,0.9s1-0.4,1-0.9v-1.5h1.6c0.5,0,1-0.4,1-0.9S31.1,9.3,30.6,9.3z"/>
			</g>
		</g>
		<g>
			<path class="st2" d="M28,3.5c3.9,0,7,3.1,7,7s-3.1,7-7,7s-7-3.1-7-7S24.1,3.5,28,3.5z"/>
		</g>
		<g>
			<path class="st2" d="M20.4,10.5c0-3.3,2.2-6.2,5.1-7.2C25,1.4,23.3,0,21.2,0H4.6C2.1,0,0,2.1,0,4.7v13c0,1.4,1.1,2.6,2.6,2.6
				c0.5,0,1.1-0.2,1.5-0.5l7.4-6.3c0.5-0.3,1.1-0.5,1.6-0.5h7.8C20.6,12.2,20.4,11.4,20.4,10.5z"/>
		</g>
		<g>
			<path class="st2" d="M33.4,15.8c-0.5,0.5-1,0.8-1.5,1.2c0.8,0.5,1.3,1.4,1.3,2.4v13c0,0.3-0.2,0.5-0.4,0.7
				c-0.2,0.1-0.5,0.1-0.7,0l-7.6-6.4c-0.8-0.5-1.6-0.8-2.6-0.8h-8.1c-1.5,0-2.8-1.2-2.8-2.8v-3.7c0-1.5,1.2-2.8,2.8-2.8h9.7
				c-0.7-0.5-1.3-1.1-1.8-1.9h-7.9c-2.5,0-4.6,2.1-4.6,4.7v3.7c0,2.6,2.1,4.6,4.6,4.6h8.1c0.5,0,1,0.1,1.5,0.4l7.6,6.4
				c0.4,0.3,0.9,0.4,1.4,0.4c0.4,0,0.8-0.1,1.2-0.3c0.8-0.5,1.4-1.3,1.4-2.3v-13C35,18,34.4,16.7,33.4,15.8z"/>
		</g>
	</g>
</g>
<g id="Layer_5" class="st0">
	<g class="st1">
		<g>
			<path class="st2" d="M28.9,17.5c0,0-4.6-6.1-11.4-6.1S6.1,17.5,6.1,17.5s4.6,6.1,11.4,6.1S28.9,17.5,28.9,17.5L28.9,17.5z
				 M26.7,17.5c0,0-4.1,4.5-9.2,4.5c-5.1,0-9.2-4.5-9.2-4.5s4.1-4.6,9.2-4.6C22.6,12.9,26.7,17.5,26.7,17.5L26.7,17.5z M20.9,17.5
				c0-1.9-1.5-3.4-3.4-3.4s-3.4,1.5-3.4,3.4s1.5,3.4,3.4,3.4C19.4,20.9,20.9,19.4,20.9,17.5L20.9,17.5z"/>
		</g>
		<g>
			<path class="st2" d="M33,0H2C0.9,0,0,0.8,0,1.9v31.3c0,1,0.9,1.9,2,1.9h31c1.1,0,2-0.8,2-1.9V1.9C35,0.8,34.1,0,33,0z M33,33.1H2
				V1.9h31V33.1z"/>
		</g>
	</g>
</g>
<g id="Layer_6">
	<g>
		<path class="st2" d="M35,11.7v21.2c0,0.9-0.6,1.5-0.6,1.5C33.8,35,32.8,35,32.8,35H2.2c-0.9,0-1.5-0.6-1.5-0.6
			C0,33.8,0,32.8,0,32.8V2.2c0-0.9,0.6-1.5,0.6-1.5C1.3,0,2.2,0,2.2,0h21.2c0.9,0,2,0.5,2,0.5c1.1,0.5,1.7,1.1,1.7,1.1L33.5,8
			c0.6,0.6,1.1,1.7,1.1,1.7C35,10.8,35,11.7,35,11.7z M20.4,11V2.5c0-0.3-0.2-0.5-0.2-0.5c-0.2-0.2-0.5-0.2-0.5-0.2h-4.4
			C15,1.7,14.8,2,14.8,2c-0.2,0.2-0.2,0.5-0.2,0.5V11c0,0.3,0.2,0.5,0.2,0.5c0.2,0.2,0.5,0.2,0.5,0.2h4.4c0.3,0,0.5-0.2,0.5-0.2
			C20.4,11.3,20.4,11,20.4,11z M29.2,33.3h4.1V11.7c0-0.3-8.9-9.7-8.9-9.7c-0.5-0.2-2.3-0.2-2.3-0.2v9.5c0,0.9-0.6,1.6-0.6,1.6
			c-0.6,0.6-1.5,0.6-1.5,0.6H9.3c-0.9,0-1.6-0.6-1.6-0.6c-0.6-0.6-0.6-1.6-0.6-1.6V1.7H1.7v31.6h4.1V22.6c0-0.9,0.6-1.5,0.6-1.5
			C7.1,20.4,8,20.4,8,20.4h19c0.9,0,1.5,0.6,1.5,0.6c0.6,0.6,0.6,1.5,0.6,1.5S29.2,33.3,29.2,33.3z M7.6,33.3h19.9V22.1H7.6V33.3z"
			/>
	</g>
</g>
<g id="Layer_7" class="st0">
	<g class="st1">
		<g>
			<path class="st2" d="M16.9,4.3c-3.5,0-6.8,1.3-9.4,3.8c-2.4,2.5-3.8,5.8-3.8,9.3c0,6,4,11.3,9.8,12.9c1.2,0.3,2.4,0.5,3.6,0.5
				c3.5,0,6.8-1.3,9.4-3.8c2.1-2.2,3.4-5,3.7-8c0-0.4,0.1-0.9,0.1-1.3C30.3,10.3,24.3,4.3,16.9,4.3z M24,18.7l-9.9,7
				c-0.3,0.2-0.6,0.4-0.9,0.4c-0.4,0-0.7-0.4-0.7-1.1V10.3c0-0.7,0.3-1.1,0.7-1.1c0.3,0,0.5,0.1,0.8,0.3l9.9,6.7
				c0.6,0.4,0.9,0.8,0.9,1.2C24.8,17.8,24.5,18.2,24,18.7z M16.9,0.6C12.4,0.6,8.2,2.3,5,5.4l0,0l0,0c-3.1,3.2-4.8,7.4-4.8,11.9
				c0,3.8,1.2,7.4,3.6,10.4c2.3,2.9,5.4,5.1,9,6c1.5,0.4,3.1,0.6,4.6,0.6c4.5,0,8.7-1.7,11.9-4.8l0,0l0,0c2.7-2.8,4.4-6.4,4.7-10.2
				c0-0.6,0.1-1.1,0.1-1.7C34,8.3,26.3,0.6,16.9,0.6z M32,19.2c-0.3,3.4-1.8,6.6-4.2,9.1l0,0l0,0c-2.9,2.8-6.6,4.3-10.6,4.3
				c-1.4,0-2.8-0.2-4.1-0.6c-3.1-0.9-6-2.8-7.9-5.4C3.1,24,2,20.8,2,17.4c0-4,1.5-7.7,4.3-10.6l0,0l0,0c2.8-2.8,6.6-4.3,10.6-4.3
				c8.4,0,15.2,6.8,15.2,15.2C32.1,18.2,32,18.7,32,19.2z"/>
		</g>
	</g>
</g>
</svg>
