<?xml version="1.0" encoding="utf-8"?>
<!-- Generator: Adobe Illustrator 24.2.1, SVG Export Plug-In . SVG Version: 6.00 Build 0)  -->
<svg version="1.1" id="Layer_1" xmlns="http://www.w3.org/2000/svg" xmlns:xlink="http://www.w3.org/1999/xlink" x="0px" y="0px"
	 viewBox="0 0 17.3 19.3" style="enable-background:new 0 0 17.3 19.3;" xml:space="preserve">
<style type="text/css">
	.st0{fill-rule:evenodd;clip-rule:evenodd;fill:#333333;}
</style>
<g>
	<g>
		<path class="st0" d="M10.8,14.8l-3.1-3.1c-0.2-0.2-0.6-0.2-0.9,0c-0.2,0.2-0.2,0.6,0,0.9l2,2H1.7c-0.3,0-0.6,0.3-0.6,0.6
			c0,0.3,0.3,0.6,0.6,0.6h7.2l-2,2c-0.2,0.2-0.2,0.6,0,0.9C6.9,18.9,7.1,19,7.3,19c0.2,0,0.3-0.1,0.4-0.2l3.1-3.1
			c0.1-0.1,0.1-0.1,0.1-0.2c0.1-0.2,0.1-0.3,0-0.5C10.9,14.9,10.8,14.8,10.8,14.8z M15.4,4.6H8.2l2-2c0.2-0.2,0.2-0.6,0-0.9
			c-0.2-0.2-0.6-0.2-0.9,0L6.2,4.8C6.2,4.8,6.1,4.9,6.1,5C6,5.1,6,5.3,6.1,5.5c0,0.1,0.1,0.1,0.1,0.2l3.1,3.1C9.5,8.9,9.6,9,9.8,9
			c0.2,0,0.3-0.1,0.4-0.2c0.2-0.2,0.2-0.6,0-0.9l-2-2h7.2c0.3,0,0.6-0.3,0.6-0.6S15.7,4.6,15.4,4.6z"/>
	</g>
</g>
</svg>
