<?xml version="1.0" encoding="utf-8"?>
<!-- Generator: Adobe Illustrator 24.3.0, SVG Export Plug-In . SVG Version: 6.00 Build 0)  -->
<svg version="1.1" id="Layer_1" xmlns="http://www.w3.org/2000/svg" xmlns:xlink="http://www.w3.org/1999/xlink" x="0px" y="0px"
	 viewBox="0 0 64 64" style="enable-background:new 0 0 64 64;" xml:space="preserve">
<style type="text/css">
	.st0{fill:#ECB020;}
</style>
<g>
	<g>
		<path class="st0" d="M59.2,20.2c-1.5-3.6-3.6-6.9-6.4-9.7c-2.7-2.8-5.9-5-9.5-6.6c-3.7-1.6-7.6-2.4-11.6-2.4
			c-4,0-7.9,0.8-11.6,2.4c-3.5,1.5-6.7,3.8-9.5,6.6c-2.7,2.8-4.9,6.1-6.4,9.7C2.8,24,2,28,2,32.1c0,4.1,0.8,8.1,2.3,11.9
			c1.5,3.6,3.6,6.9,6.4,9.7c2.7,2.8,5.9,5,9.5,6.6c3.7,1.6,7.6,2.4,11.6,2.4c4,0,7.9-0.8,11.6-2.4c3.5-1.5,6.7-3.8,9.5-6.6
			c2.7-2.8,4.9-6.1,6.4-9.7c1.6-3.8,2.3-7.8,2.3-11.9C61.6,28,60.8,24,59.2,20.2z M31.8,60.8c-4.3,0-8.3-1-11.9-2.8L32,32l0-0.1
			h-0.1l-28,0.1c0-15.8,12.5-28.7,27.9-28.7c15.4,0,27.9,12.9,27.9,28.7C59.7,47.9,47.2,60.8,31.8,60.8z"/>
	</g>
</g>
</svg>
