<?xml version="1.0" encoding="utf-8"?>
<!-- Generator: Adobe Illustrator 23.0.3, SVG Export Plug-In . SVG Version: 6.00 Build 0)  -->
<svg version="1.1" xmlns="http://www.w3.org/2000/svg" xmlns:xlink="http://www.w3.org/1999/xlink" x="0px" y="0px"
	 viewBox="0 0 25 25" style="enable-background:new 0 0 25 25;" xml:space="preserve">
<style type="text/css">
	.st0{display:none;}
	.st1{display:inline;}
	.st2{fill:#2C3545;}
	.st3{display:inline;fill:#2C3545;}
</style>
<g id="preview" class="st0">
	<g class="st1">
		<path class="st2" d="M23,1c0.55,0,1,0.45,1,1v21c0,0.55-0.45,1-1,1H2c-0.55,0-1-0.45-1-1V2c0-0.55,0.45-1,1-1H23 M23,0H2
			C0.9,0,0,0.9,0,2v21c0,1.1,0.9,2,2,2h21c1.1,0,2-0.9,2-2V2C25,0.9,24.1,0,23,0L23,0z"/>
	</g>
	<g class="st1">
		<path class="st2" d="M12.25,10.62c0.97,0,1.76,0.79,1.76,1.76c0,0.97-0.79,1.76-1.76,1.76s-1.76-0.79-1.76-1.76
			C10.49,11.4,11.28,10.62,12.25,10.62 M12.25,7.41C6.73,7.41,3,12.37,3,12.37s3.73,4.97,9.25,4.97c5.52,0,9.25-4.97,9.25-4.97
			S17.77,7.41,12.25,7.41L12.25,7.41z M12.25,16.08c-4.12,0-7.46-3.71-7.46-3.71s3.34-3.71,7.46-3.71s7.46,3.71,7.46,3.71
			S16.37,16.08,12.25,16.08L12.25,16.08z M12.25,9.62c-1.52,0-2.76,1.23-2.76,2.76c0,1.52,1.23,2.76,2.76,2.76
			c1.52,0,2.76-1.23,2.76-2.76C15.01,10.85,13.77,9.62,12.25,9.62L12.25,9.62z"/>
	</g>
</g>
<g id="review" class="st0">
	<g class="st1">
		<g>
			<path class="st2" d="M24.93,23.02l-5.21-5.52c-0.01-0.02-0.03-0.03-0.05-0.04c0.8-1.37,1.05-3.04,0.52-4.67
				c-1-3.1-4.39-4.83-7.58-3.85C9.43,9.9,7.66,13.2,8.66,16.3c1,3.1,4.39,4.82,7.58,3.85c0.51-0.15,0.97-0.37,1.4-0.64l5.12,5.43
				c0.15,0.16,0.49,0.1,0.75-0.14l1.2-1.07C24.98,23.49,25.08,23.17,24.93,23.02z M15.75,18.64c-2.32,0.71-4.8-0.55-5.53-2.81
				c-0.73-2.26,0.57-4.67,2.89-5.38c2.32-0.71,4.8,0.55,5.53,2.81C19.36,15.51,18.07,17.93,15.75,18.64z"/>
			<g>
				<g>
					<path class="st2" d="M12.32,12.81c2.37-0.72,4.88,0.56,5.63,2.86c0.02,0.06,0.04,0.13,0.06,0.19c0.3-0.75,0.35-1.6,0.08-2.42
						c-0.62-1.94-2.74-3.01-4.73-2.41c-1.27,0.39-2.18,1.38-2.51,2.54C11.27,13.24,11.76,12.98,12.32,12.81z"/>
				</g>
			</g>
		</g>
		<g>
			<polygon class="st2" points="5.74,0 0.3,6.27 5.74,6.27 			"/>
			<path class="st2" d="M17.37,21.04c-0.25,0.11-0.5,0.2-0.76,0.28c-0.71,0.22-1.45,0.33-2.19,0.33c-1.53,0-2.99-0.46-4.24-1.32
				H3.49c-0.38,0-0.7-0.31-0.7-0.75c0-0.42,0.32-0.79,0.7-0.79h5.08c-0.48-0.63-0.86-1.34-1.11-2.12C7.36,16.33,7.27,16,7.22,15.66
				H3.49c-0.38,0-0.7-0.35-0.7-0.79c0-0.43,0.32-0.76,0.7-0.76h3.64c0.06-0.99,0.34-1.96,0.82-2.86c0.05-0.09,0.1-0.18,0.15-0.27
				H3.49c-0.38,0-0.7-0.34-0.7-0.78c0-0.43,0.32-0.79,0.7-0.79h5.88c0.8-0.75,1.78-1.31,2.87-1.65c0.71-0.22,1.45-0.33,2.19-0.33
				c1.54,0,3.02,0.47,4.28,1.35c0.28,0.2,0.54,0.41,0.79,0.64V1.61c0-0.87-0.61-1.57-1.37-1.57H6.98v7.03c0,0.44-0.32,0.79-0.7,0.79
				H0v15.59c0,0.85,0.64,1.58,1.41,1.58h16.71c0.77,0,1.37-0.72,1.37-1.58v-0.17L17.37,21.04z"/>
		</g>
	</g>
</g>
<g id="create" class="st0">
	<g class="st1">
		<g>
			<path class="st2" d="M19.53,21.38c0,0.7-0.57,1.27-1.27,1.27H3.62c-0.7,0-1.27-0.57-1.27-1.27V6.74c0-0.7,0.57-1.27,1.27-1.27
				h10.75l2.34-2.34H3.62C1.63,3.13,0,4.75,0,6.74v14.65C0,23.38,1.63,25,3.62,25h14.65c1.99,0,3.61-1.62,3.61-3.61V8.29l-2.34,2.34
				V21.38z"/>
			<path class="st2" d="M24.68,1.73l-1.41-1.42c-0.43-0.42-1.12-0.42-1.54,0L7.73,14.31l-1.48,4.43l4.43-1.48L24.68,3.28
				C25.11,2.85,25.11,2.16,24.68,1.73z"/>
		</g>
	</g>
</g>
<g id="Layer_4" class="st0">
	<g class="st1">
		<path class="st2" d="M12.47,21.23c0.34,0,0.61-0.27,0.61-0.61V10.46c0-0.34-0.27-0.61-0.61-0.61c-0.34,0-0.61,0.27-0.61,0.61
			v10.17C11.86,20.96,12.13,21.23,12.47,21.23z"/>
		<path class="st2" d="M18.39,21.23c0.34,0,0.61-0.27,0.61-0.61V10.46c0-0.34-0.27-0.61-0.61-0.61s-0.61,0.27-0.61,0.61v10.17
			C17.77,20.96,18.05,21.23,18.39,21.23z"/>
		<path class="st2" d="M6.55,21.23c0.34,0,0.61-0.27,0.61-0.61V10.46c0-0.34-0.27-0.61-0.61-0.61c-0.34,0-0.61,0.27-0.61,0.61v10.17
			C5.94,20.96,6.21,21.23,6.55,21.23z"/>
		<path class="st2" d="M24.12,1.99h-8.45V0.61C15.67,0.27,15.4,0,15.06,0H9.78C9.44,0,9.16,0.27,9.16,0.61v1.37H0.82
			C0.48,1.99,0.2,2.26,0.2,2.6v4.09c0,0.34,0.27,0.61,0.61,0.61h1.23v17.08c0,0.34,0.27,0.61,0.61,0.61h19.62
			c0.34,0,0.61-0.27,0.61-0.61V7.3h1.23c0.34,0,0.61-0.27,0.61-0.61V2.6C24.74,2.26,24.46,1.99,24.12,1.99z M10.39,1.23h4.05v0.76
			h-4.05V1.23z M21.67,23.77H3.27V7.3h18.39V23.77z M23.51,6.08h-1.23H2.66H1.43V3.21h8.35h5.28h8.45V6.08z"/>
	</g>
</g>
<g id="Layer_5" class="st0">
	<g class="st1">
		<g>
			<path class="st2" d="M24.05,2.69l-1.72-1.72c-0.61-0.61-1.43-0.95-2.3-0.95s-1.68,0.34-2.3,0.95L0,18.69v6.32h6.32L24.05,7.28
				C25.32,6.02,25.32,3.96,24.05,2.69z M5.31,22.57H2.44V19.7L15.38,6.76l2.87,2.87L5.31,22.57z M22.33,5.56l-2.35,2.35L17.1,5.04
				l2.35-2.35c0.31-0.31,0.84-0.31,1.15,0l1.72,1.72C22.64,4.73,22.64,5.24,22.33,5.56z"/>
		</g>
	</g>
</g>
<g id="Layer_6" class="st0">
	<path class="st3" d="M21.94,14.65c0,0-0.69,0-1.33,0c0-0.62,0-1.3,0-1.3c0-3.12-4.28-4.19-5.82-1.44
		c-0.56-0.43-1.15-0.79-1.75-1.08c1.72-1.1,2.75-2.93,2.75-4.94c0-3.25-2.71-5.9-6.04-5.9C6.42,0,3.71,2.65,3.71,5.9
		c0,2.07,1.1,3.89,2.75,4.94C2.81,12.57,0,17.09,0,21c0,0.48,0.4,0.87,0.89,0.87H14.4c0,4.27,6.21,4.06,6.21,0.14c0,0,0-0.68,0-1.3
		c0.64,0,1.33,0,1.33,0C26.02,20.71,26.02,14.65,21.94,14.65z M5.48,5.9c0-2.3,1.92-4.17,4.27-4.17c2.35,0,4.27,1.87,4.27,4.17
		c0,2.3-1.91,4.17-4.27,4.17C7.4,10.07,5.48,8.2,5.48,5.9z M5.7,20.13l0.61-2.95c0.15-0.74-1.01-0.97-1.16-0.23l-0.65,3.18H1.88
		c0.46-3.66,3.71-8.34,7.87-8.34c1.83,0,3.69,0.96,5.24,2.7c0.01,0.01,0,0.66,0,0.73c-0.91,0-1.92,0-1.92,0
		c-1.39,0-2.51,1.1-2.51,2.45c0,1.35,1.13,2.45,2.51,2.45H5.7z M21.94,18.98h-3.1v3.03c0,1.71-2.66,1.71-2.66,0v-3.03h-3.1
		c-0.73,0-1.33-0.58-1.33-1.3c0-0.72,0.6-1.3,1.33-1.3h3.1v-3.03c0-1.71,2.66-1.71,2.66,0v3.03h3.1
		C23.69,16.38,23.69,18.98,21.94,18.98z"/>
</g>
<g id="Layer_7" class="st0">
	<path class="st3" d="M12.5,25L12.5,25c-0.55,0-1-0.45-1-1V1c0-0.55,0.45-1,1-1h0c0.55,0,1,0.45,1,1v23C13.5,24.55,13.05,25,12.5,25
		z"/>
	<path class="st3" d="M25,12.5L25,12.5c0,0.55-0.45,1-1,1H1c-0.55,0-1-0.45-1-1v0c0-0.55,0.45-1,1-1h23C24.55,11.5,25,11.95,25,12.5
		z"/>
</g>
<g id="Layer_8">
	<g>
		<path class="st2" d="M22.92,0H6.6c0,0-0.14,0-0.53,0C5.6,0,5.02,0.22,4.48,0.77c-0.75,0.76-3.05,3.21-3.77,4
			C0.32,5.19,0,5.83,0,6.42C0,6.6,0,6.96,0,6.96v15.92C0,24.05,0.93,25,2.08,25h20.83c1.15,0,2.08-0.95,2.08-2.12V2.12
			C25,0.95,24.07,0,22.92,0z M5.2,2.32v3.15c0,0.38-0.31,0.68-0.68,0.68h-3L5.2,2.32z M23.6,22.88c0,0.38-0.31,0.69-0.68,0.69H2.08
			c-0.38,0-0.68-0.31-0.68-0.69V6.96h3.11c1.15,0,2.08-0.95,2.08-2.12V1.43h16.32c0.38,0,0.68,0.31,0.68,0.69V22.88z"/>
		<path class="st2" d="M5.51,15.28c-0.11-0.13-0.27-0.27-0.46-0.42c0.29-0.01,0.5-0.03,0.65-0.06l0.8-0.17l-0.36-1.12l-0.72,0.35
			c-0.08,0.04-0.19,0.09-0.33,0.17c-0.04,0.02-0.13,0.07-0.26,0.14c0.07-0.25,0.11-0.47,0.13-0.66l0.09-0.8H3.9l0.1,0.8
			c0.02,0.14,0.06,0.36,0.12,0.66c-0.3-0.18-0.49-0.29-0.57-0.33l-0.72-0.33l-0.37,1.12l0.81,0.13c0.26,0.05,0.47,0.08,0.63,0.1
			c-0.16,0.12-0.32,0.26-0.48,0.42l-0.58,0.6l0.96,0.71l0.39-0.71c0.05-0.07,0.13-0.27,0.27-0.6c0.12,0.3,0.21,0.5,0.27,0.6
			l0.38,0.71l0.94-0.71L5.51,15.28z"/>
		<polygon class="st2" points="10.76,17.68 11.6,16.81 12.13,16.81 12.13,15.8 10.1,15.8 10.1,16.81 10.63,16.81 10.03,17.43 
			9.48,16.81 9.85,16.81 9.85,15.8 7.27,15.8 7.27,16.81 7.63,16.81 8.61,17.92 7.8,18.85 7.27,18.85 7.27,19.85 9.31,19.85 
			9.31,18.85 8.79,18.85 9.36,18.19 9.97,18.85 9.6,18.85 9.6,19.85 12.14,19.85 12.14,18.85 11.76,18.85 		"/>
		<path class="st2" d="M19.01,17.64c0-0.99-0.2-1.94-1.49-1.94c-0.55,0-0.92,0.3-1.17,0.58c-0.13-0.19-0.38-0.58-1.19-0.58
			c-0.5,0-0.87,0.44-1,0.59l-0.18-0.48h-1.51v1.07h0.33v1.91h-0.33v1.06h2.37v-1.06h-0.48v-1.44c0-0.33,0.1-0.49,0.36-0.49
			c0.32,0,0.33,0.27,0.33,0.92v2.07h2.06v-1.09h-0.48v-1.31c0-0.35,0.08-0.59,0.42-0.59c0.37,0,0.3,0.62,0.3,1v1.99h2.02v-1.09
			h-0.39V17.64z"/>
		<polygon class="st2" points="21.57,13.77 19.72,13.77 19.72,14.82 20.06,14.82 20.06,18.79 19.71,18.79 19.71,19.85 22.04,19.85 
			22.04,18.79 21.57,18.79 		"/>
		<path class="st2" d="M5.95,18.33c-0.5,0-0.78,0.44-0.78,0.8c0,0.37,0.32,0.76,0.78,0.76c0.52,0,0.79-0.34,0.79-0.76
			C6.74,18.77,6.45,18.33,5.95,18.33z"/>
	</g>
</g>
</svg>
